27 R基础实用指南 – R数据科学 (第二版)
…
然后，我们将不再直接迭代paths的元素，而是迭代它们的索引，使用seq_along()函数为每个paths的元素生成一个索引：

seq_along(paths)
#>  [1]  1  2  3  4  5  6  7  8  9 10 11 12 13 14 15 16

使用索引很重要，因为它允许我们将输入中的每个位置与输出中的相应位置链接起来:

for (i in seq_along(paths)) {
  files[[i]] <- readxl::read_excel(paths[[i]])
}

要将多个tibble列表合并成一个单一的tibble，你可以使用do.call()+rbind()函数：

do.call(rbind, files)
#> # A tibble: 2,272 × 5
#>   country     continent lifeExp      pop gdpPercap
#>   <chr>       <chr>       <dbl>    <dbl>     <dbl>
#> 1 Afghanistan Asia         28.8  8425333      779.
#> 2 Albania     Europe       55.2  1282697     1601.
#> 3 Algeria     Africa       43.1  9279525     2449.
#> 4 Angola      Africa       30.0  4232095     3521.
#> 5 Argentina   Americas     62.5 17876956     5911.
#> 6 Australia   Oceania      69.1  8691212    10040.
#> # ℹ 2,266 more rows
…
