3 数据转换 – R数据科学 (第二版)
…
请注意加载tidyverse时显示的冲突消息。它 告诉你dplyr覆盖了R基础包中的一些函数。如 果你在加载dplyr后想使用这些函数的基础版本，你需要使用它们的全名：stats::filter() 和 stats::lag()。到 目前为止，我们主要忽略了函数来自哪个包，因为大多数情况下这并不重要。但 是，知道包名可以帮助你找到帮助和相关的函数，所以当我们需要精确地知道一个函数来自哪个包时，我们将使用与R相同的语法：packagename::functionname()。

3.1.2 nycflights13

为了探索基本的dplyr操作，我们将使用nycflights13::flights。此 数据集包含所有r format(nrow(nycflights13::flights), big.mark = “,”)2013年从纽约出发的航班。这 些数据来自美国Bureau of Transportation Statistics，并记录在 ?f lights。

flights
#> # A tibble: 336,776 × 19
#>    year month   day dep_time sched_dep_time dep_delay arr_time sched_arr_time
#>   <int> <int> <int>    <int>          <int>     <dbl>    <int>          <int>
#> 1  2013     1     1      517            515         2      830            819
#> 2  2013     1     1      533            529         4      850            830
#> 3  2013     1     1      542            540         2      923            850
#> 4  2013     1     1      544            545        -1     1004           1022
#> 5  2013     1     1      554            600        -6      812            837
#> 6  2013     1     1      554            558        -4      740            728
#> # ℹ 336,770 more rows
#> # ℹ 11 more variables: arr_delay <dbl>, carrier <chr>, flight <int>, …
…
dplyr的函数根据作用对象不同分为四组：行（rows）、列（columns）、组（groups）或表（tables）。下 面将学习有关行、列和组的最重要函数，然后回到 章节 19 中探讨作用于表的合并操作。让 我们开始吧!

3.2 行

对数据集的行进行操作的最重要的函数是filter()，它影响行的去留而不改变它们的顺序；而函数arrange()改变行的顺序而不影响行的去留。这 两个函数都只影响行，列保持不变。我 们还将讨论distinct()，它找出具有唯一值的行，但与arrange()和filter()不同，它还可以选择性地修改列。

3.2.1 filter()

Filter()允许你根据列的值保留行1。 第一个参数是数据框，第二个及随后的参数是保留该行必须为真的条件。 例如，我们可以找出所有迟到超过120分钟(2小时)的航班:

flights |> 
  filter(dep_delay > 120)
#> # A tibble: 9,723 × 19
#>    year month   day dep_time sched_dep_time dep_delay arr_time sched_arr_time
#>   <int> <int> <int>    <int>          <int>     <dbl>    <int>          <int>
#> 1  2013     1     1      848           1835       853     1001           1950
#> 2  2013     1     1      957            733       144     1056            853
#> 3  2013     1     1     1114            900       134     1447           1222
#> 4  2013     1     1     1540           1338       122     2020           1825
#> 5  2013     1     1     1815           1325       290     2120           1542
#> 6  2013     1     1     1842           1422       260     1958           1535
#> # ℹ 9,717 more rows
#> # ℹ 11 more variables: arr_delay <dbl>, carrier <chr>, flight <int>, …

除了使用 >（大于）之外，还可以使用 >=（大于或等于）、<（小于）、<=（小于或等于）、==（等于）和 != （不等于）。你 还可以使用 & 或 , 来组合条件，表示“和”（检查两个条件是否都满足），或者使用 | 来表示“或”（检查任一条件是否满足）：

# Flights that departed on January 1
flights |> 
  filter(month == 1 & day == 1)
#> # A tibble: 842 × 19
#>    year month   day dep_time sched_dep_time dep_delay arr_time sched_arr_time
#>   <int> <int> <int>    <int>          <int>     <dbl>    <int>          <int>
#> 1  2013     1     1      517            515         2      830            819
#> 2  2013     1     1      533            529         4      850            830
#> 3  2013     1     1      542            540         2      923            850
#> 4  2013     1     1      544            545        -1     1004           1022
#> 5  2013     1     1      554            600        -6      812            837
#> 6  2013     1     1      554            558        -4      740            728
#> # ℹ 836 more rows
#> # ℹ 11 more variables: arr_delay <dbl>, carrier <chr>, flight <int>, …

# Flights that departed in January or February
flights |> 
  filter(month == 1 | month == 2)
#> # A tibble: 51,955 × 19
#>    year month   day dep_time sched_dep_time dep_delay arr_time sched_arr_time
#>   <int> <int> <int>    <int>          <int>     <dbl>    <int>          <int>
#> 1  2013     1     1      517            515         2      830            819
#> 2  2013     1     1      533            529         4      850            830
#> 3  2013     1     1      542            540         2      923            850
#> 4  2013     1     1      544            545        -1     1004           1022
#> 5  2013     1     1      554            600        -6      812            837
#> 6  2013     1     1      554            558        -4      740            728
#> # ℹ 51,949 more rows
#> # ℹ 11 more variables: arr_delay <dbl>, carrier <chr>, flight <int>, …

当您结合使用 | 和 == 时有一个很有用的快捷方式：%in%。它 会保留变量等于右侧值之一的行：

# A shorter way to select flights that departed in January or February
flights |> 
  filter(month %in% c(1, 2))
#> # A tibble: 51,955 × 19
#>    year month   day dep_time sched_dep_time dep_delay arr_time sched_arr_time
#>   <int> <int> <int>    <int>          <int>     <dbl>    <int>          <int>
#> 1  2013     1     1      517            515         2      830            819
#> 2  2013     1     1      533            529         4      850            830
#> 3  2013     1     1      542            540         2      923            850
#> 4  2013     1     1      544            545        -1     1004           1022
#> 5  2013     1     1      554            600        -6      812            837
#> 6  2013     1     1      554            558        -4      740            728
#> # ℹ 51,949 more rows
#> # ℹ 11 more variables: arr_delay <dbl>, carrier <chr>, flight <int>, …
…
另一个错误是像在英语中那样写“或”语句:

flights |> 
  filter(month == 1 | 2)

这段代码“有效”，它不会抛出错误，但它没有按照你的期望去做，因为 | 首先检查条件month == 1，然后检查条件2，而检查2并不是一个合理的条件。我 们将在 小节 15.6.2 更多地了解这里发生了什么，以及为什么。

3.2.3 arrange()

arrange()根据列的值改变行的顺序。它 根据一个数据框和一组列名（或更复杂的表达式）来排序。如 果你提供了多个列名，那么每个额外的列都将用于解决前面列中值的并列问题。例 如，下面的代码按出发时间排序，出发时间分布在四个列中。我 们首先得到最早的年份，然后在同一年份中，我们得到最早的月份，依此类推。

flights |> 
  arrange(year, month, day, dep_time)
#> # A tibble: 336,776 × 19
#>    year month   day dep_time sched_dep_time dep_delay arr_time sched_arr_time
#>   <int> <int> <int>    <int>          <int>     <dbl>    <int>          <int>
#> 1  2013     1     1      517            515         2      830            819
#> 2  2013     1     1      533            529         4      850            830
#> 3  2013     1     1      542            540         2      923            850
#> 4  2013     1     1      544            545        -1     1004           1022
#> 5  2013     1     1      554            600        -6      812            837
#> 6  2013     1     1      554            558        -4      740            728
#> # ℹ 336,770 more rows
#> # ℹ 11 more variables: arr_delay <dbl>, carrier <chr>, flight <int>, …

你可以在arrange()内部对某一列使用desc()来根据该列的值以降序（从大到小）重新排序数据框。例 如，这段代码将航班按延误时间从长到短排序：

flights |> 
  arrange(desc(dep_delay))
#> # A tibble: 336,776 × 19
#>    year month   day dep_time sched_dep_time dep_delay arr_time sched_arr_time
#>   <int> <int> <int>    <int>          <int>     <dbl>    <int>          <int>
#> 1  2013     1     9      641            900      1301     1242           1530
#> 2  2013     6    15     1432           1935      1137     1607           2120
#> 3  2013     1    10     1121           1635      1126     1239           1810
#> 4  2013     9    20     1139           1845      1014     1457           2210
#> 5  2013     7    22      845           1600      1005     1044           1815
#> 6  2013     4    10     1100           1900       960     1342           2211
#> # ℹ 336,770 more rows
#> # ℹ 11 more variables: arr_delay <dbl>, carrier <chr>, flight <int>, …

注意，行数没有改变，我们只是对数据进行了排列，没有对其进行过筛选。

3.2.4 distinct()

distinct()在数据集中找出所有唯一的行，所以从技术上讲，它主要对行进行操作。然 而，在大多数情况下，你会想要某些变量的不同组合，因此你也可以选择性地提供列名：

# Remove duplicate rows, if any
flights |> 
  distinct()
#> # A tibble: 336,776 × 19
#>    year month   day dep_time sched_dep_time dep_delay arr_time sched_arr_time
#>   <int> <int> <int>    <int>          <int>     <dbl>    <int>          <int>
#> 1  2013     1     1      517            515         2      830            819
#> 2  2013     1     1      533            529         4      850            830
#> 3  2013     1     1      542            540         2      923            850
#> 4  2013     1     1      544            545        -1     1004           1022
#> 5  2013     1     1      554            600        -6      812            837
#> 6  2013     1     1      554            558        -4      740            728
#> # ℹ 336,770 more rows
#> # ℹ 11 more variables: arr_delay <dbl>, carrier <chr>, flight <int>, …

# Find all unique origin and destination pairs
flights |> 
  distinct(origin, dest)
#> # A tibble: 224 × 2
#>   origin dest 
#>   <chr>  <chr>
#> 1 EWR    IAH  
#> 2 LGA    IAH  
#> 3 JFK    MIA  
#> 4 JFK    BQN  
#> 5 LGA    ATL  
#> 6 EWR    ORD  
#> # ℹ 218 more rows

或者，如果希望在筛选唯一行时保留其他列，您可以使用.keep_all = TRUE选项。

flights |> 
  distinct(origin, dest, .keep_all = TRUE)
#> # A tibble: 224 × 19
#>    year month   day dep_time sched_dep_time dep_delay arr_time sched_arr_time
#>   <int> <int> <int>    <int>          <int>     <dbl>    <int>          <int>
#> 1  2013     1     1      517            515         2      830            819
#> 2  2013     1     1      533            529         4      850            830
#> 3  2013     1     1      542            540         2      923            850
#> 4  2013     1     1      544            545        -1     1004           1022
#> 5  2013     1     1      554            600        -6      812            837
#> 6  2013     1     1      554            558        -4      740            728
#> # ℹ 218 more rows
#> # ℹ 11 more variables: arr_delay <dbl>, carrier <chr>, flight <int>, …

所有这些不同的航班都在1月1日并不是巧合：distinct()会在数据集中找到第一个出现的唯一行，并丢弃其余的行。

如果你想要找到出现的次数，那么最好将distinct()替换为count()，并使用sort = TRUE参数，你可以按照出现次数的降序排列它们。你 将在 小节 13.3 学到更多关于count的内容。

flights |>
  count(origin, dest, sort = TRUE)
#> # A tibble: 224 × 3
#>   origin dest      n
#>   <chr>  <chr> <int>
#> 1 JFK    LAX   11262
#> 2 LGA    ATL   10263
#> 3 LGA    ORD    8857
#> 4 JFK    SFO    8204
#> 5 LGA    CLT    6168
#> 6 EWR    ORD    6100
#> # ℹ 218 more rows
…
3.3 列

有四个重要的函数，它们影响列而不改变行：mutate()用于根据现有列创建新列，select()用于更改列存留，rename()用于更改列的名称，而relocate()用于更改列的位置。

3.3.1 mutate()

mutate()的作用是添加根据现有列计算得到的新列。在 数据转换章节中，你将学习一系列函数，这些函数可用于处理不同类型的变量。目 前，我们将继续使用基础代数，这允许我们计算gain（即延误航班在空中弥补了多少时间）以及每小时的速度：

flights |> 
  mutate(
    gain = dep_delay - arr_delay,
    speed = distance / air_time * 60
  )
#> # A tibble: 336,776 × 21
#>    year month   day dep_time sched_dep_time dep_delay arr_time sched_arr_time
#>   <int> <int> <int>    <int>          <int>     <dbl>    <int>          <int>
#> 1  2013     1     1      517            515         2      830            819
#> 2  2013     1     1      533            529         4      850            830
#> 3  2013     1     1      542            540         2      923            850
#> 4  2013     1     1      544            545        -1     1004           1022
#> 5  2013     1     1      554            600        -6      812            837
#> 6  2013     1     1      554            558        -4      740            728
#> # ℹ 336,770 more rows
#> # ℹ 13 more variables: arr_delay <dbl>, carrier <chr>, flight <int>, …

默认情况下，mutate()会在数据集的右侧添加新列，但这使得我们很难看到数据集里发生了什么。可 以使用.before参数来将变量添加到左侧2：

flights |> 
  mutate(
    gain = dep_delay - arr_delay,
    speed = distance / air_time * 60,
    .before = 1
  )
#> # A tibble: 336,776 × 21
#>    gain speed  year month   day dep_time sched_dep_time dep_delay arr_time
#>   <dbl> <dbl> <int> <int> <int>    <int>          <int>     <dbl>    <int>
#> 1    -9  370.  2013     1     1      517            515         2      830
#> 2   -16  374.  2013     1     1      533            529         4      850
#> 3   -31  408.  2013     1     1      542            540         2      923
#> 4    17  517.  2013     1     1      544            545        -1     1004
#> 5    19  394.  2013     1     1      554            600        -6      812
#> 6   -16  288.  2013     1     1      554            558        -4      740
#> # ℹ 336,770 more rows
#> # ℹ 12 more variables: sched_arr_time <int>, arr_delay <dbl>, …
…
starts_with(“abc”): 匹配以 “abc” 开头的名称；

ends_with(“xyz”): 匹配以 “xyz” 结尾的名称；

contains(“ijk”): 匹配包含 “ijk” 的名称；

num_range(“x”, 1:3): 匹配 x1、x2 和 x3。

参阅?s elect以获取更多详细信息。一 旦你熟悉了正则表达式（这是 章节 15 的内容），你也可以使用matches()来选择匹配某个模式的变量。

你可以在select()变量时使用=来重命名它们，新名称出现在=的左侧，旧变量出现在右侧：

flights |> 
  select(tail_num = tailnum)
#> # A tibble: 336,776 × 1
#>   tail_num
#>   <chr>   
#> 1 N14228  
#> 2 N24211  
#> 3 N619AA  
#> 4 N804JB  
#> 5 N668DN  
#> 6 N39463  
#> # ℹ 336,770 more rows

3.3.3 rename()

如果你想保留所有现有的变量，只是对几个重命名，可以使用rename()而不是select():

flights |> 
  rename(tail_num = tailnum)
#> # A tibble: 336,776 × 19
#>    year month   day dep_time sched_dep_time dep_delay arr_time sched_arr_time
#>   <int> <int> <int>    <int>          <int>     <dbl>    <int>          <int>
#> 1  2013     1     1      517            515         2      830            819
#> 2  2013     1     1      533            529         4      850            830
#> 3  2013     1     1      542            540         2      923            850
#> 4  2013     1     1      544            545        -1     1004           1022
#> 5  2013     1     1      554            600        -6      812            837
#> 6  2013     1     1      554            558        -4      740            728
#> # ℹ 336,770 more rows
#> # ℹ 11 more variables: arr_delay <dbl>, carrier <chr>, flight <int>, …

如果您有一堆命名不一致的列，并且手工修复它们会很痛苦，请查看janitor::clean_names()，它提供了一些有用的自动清理方法。

3.3.4 relocate()

使用relocate()来移动变量。你 可能希望将相关变量收集在一起或将重要变量移到前面。默 认情况下，relocate()将变量移到前面:

flights |> 
  relocate(time_hour, air_time)
#> # A tibble: 336,776 × 19
#>   time_hour           air_time  year month   day dep_time sched_dep_time
#>   <dttm>                 <dbl> <int> <int> <int>    <int>          <int>
#> 1 2013-01-01 05:00:00      227  2013     1     1      517            515
#> 2 2013-01-01 05:00:00      227  2013     1     1      533            529
#> 3 2013-01-01 05:00:00      160  2013     1     1      542            540
#> 4 2013-01-01 05:00:00      183  2013     1     1      544            545
#> 5 2013-01-01 06:00:00      116  2013     1     1      554            600
#> 6 2013-01-01 05:00:00      150  2013     1     1      554            558
#> # ℹ 336,770 more rows
#> # ℹ 12 more variables: dep_delay <dbl>, arr_time <int>, …
…
3.4 管道

上面已经展示了管道的简单示例，但是当你开始组合使用多个函数时，它的真正功能才会出现。例 如，假设你想查找飞往休斯顿IAH机场的最快航班，您需要组合函数filter()、mutate()、select()和arrange():

flights |> 
  filter(dest == "IAH") |> 
  mutate(speed = distance / air_time * 60) |> 
  select(year:day, dep_time, carrier, flight, speed) |> 
  arrange(desc(speed))
#> # A tibble: 7,198 × 7
#>    year month   day dep_time carrier flight speed
#>   <int> <int> <int>    <int> <chr>    <int> <dbl>
#> 1  2013     7     9      707 UA         226  522.
#> 2  2013     8    27     1850 UA        1128  521.
#> 3  2013     8    28      902 UA        1711  519.
#> 4  2013     8    28     2122 UA        1022  519.
#> 5  2013     6    11     1628 UA        1178  515.
#> 6  2013     8    27     1017 UA         333  515.
#> # ℹ 7,192 more rows
…
对于简单的情况，|>和%>%的行为是相同的。那 么我们为什么推荐基础管道|>呢？首 先，因为它是 R 语言的基础部分，所以你总是可以使用它，即使你没有使用 tidyverse。其 次，|>比%>%简单得多：在%>%于 2014 年被发明和|>于 2021 年在 R 4.1.0 中被引入之间的这段时间里，我们对管道有了更好的理解。这 使得|>能够舍弃那些不常用且不太重要的特性。

3.5 分组

到目前为止，你已经学习了处理行和列的函数。当 你添加了处理分组的能力时，dplyr会变得更加强大。在 本节中，我们将重点关注最重要的函数：group_by()、summarize()和slice函数族。

3.5.1 group_by()

使用group_by()将数据集划分为对分析有意义的组:

flights |> 
  group_by(month)
#> # A tibble: 336,776 × 19
#> # Groups:   month [12]
#>    year month   day dep_time sched_dep_time dep_delay arr_time sched_arr_time
#>   <int> <int> <int>    <int>          <int>     <dbl>    <int>          <int>
#> 1  2013     1     1      517            515         2      830            819
#> 2  2013     1     1      533            529         4      850            830
#> 3  2013     1     1      542            540         2      923            850
#> 4  2013     1     1      544            545        -1     1004           1022
#> 5  2013     1     1      554            600        -6      812            837
#> 6  2013     1     1      554            558        -4      740            728
#> # ℹ 336,770 more rows
#> # ℹ 11 more variables: arr_delay <dbl>, carrier <chr>, flight <int>, …

group_by()并不改变数据，但如果你仔细观察输出，你会注意到输出显示它是按月“分组”（Groups: month [12]）。这 意味着后续的操作将“按月”进行。g roup_by()将这个分组特性（称为类）添加到数据框中，从而改变了后续应用于数据的函数的行为。

3.5.2 summarize()

最重要的分组操作是汇总，如果用于计算单个汇总统计量，它将数据框缩减为每个组只有一行。在 dplyr 中，这个操作是通过summarize()3完成的，如下例所示，它计算了每个月的平均离港延误时间：

flights |> 
  group_by(month) |> 
  summarize(
    avg_delay = mean(dep_delay)
  )
#> # A tibble: 12 × 2
#>   month avg_delay
#>   <int>     <dbl>
#> 1     1        NA
#> 2     2        NA
#> 3     3        NA
#> 4     4        NA
#> 5     5        NA
#> 6     6        NA
#> # ℹ 6 more rows

哎呀！出 错了，我们所有的结果都是 NA（读作“N-A”），这是 R 中缺失值的符号。这 是因为我们观察的一些航班在延误列中有缺失数据，所以当我们将这些值包括在内计算平均值时，我们就得到了一个 NA 结果。我 们将在 章节 18 部分中详细讨论缺失值，但现在我们会告诉mean()函数通过设置na.rm参数为TRUE来忽略所有缺失值：

flights |> 
  group_by(month) |> 
  summarize(
    avg_delay = mean(dep_delay, na.rm = TRUE)
  )
#> # A tibble: 12 × 2
#>   month avg_delay
#>   <int>     <dbl>
#> 1     1      10.0
#> 2     2      10.8
#> 3     3      13.2
#> 4     4      13.9
#> 5     5      13.0
#> 6     6      20.8
#> # ℹ 6 more rows

你可以在单次调用summarize()时创建任意数量的汇总。在 接下来的章节中，你将学习各种有用的汇总，但其中一个非常有用的摘要是n()，它返回每个组的行数

flights |> 
  group_by(month) |> 
  summarize(
    avg_delay = mean(dep_delay, na.rm = TRUE), 
    n = n()
  )
#> # A tibble: 12 × 3
#>   month avg_delay     n
#>   <int>     <dbl> <int>
#> 1     1      10.0 27004
#> 2     2      10.8 24951
#> 3     3      13.2 28834
#> 4     4      13.9 28330
#> 5     5      13.0 28796
#> 6     6      20.8 28243
#> # ℹ 6 more rows
…
df |> slice_tail(n = 1) 从每个组中取最后一行；

df |> slice_min(x, n = 1) 取列x值最小的行；

df |> slice_max(x, n = 1) 取列x值最大的行；

df |> slice_sample(n = 1) 随机取一行。

你可以改变参数n来选择多行，或者代替n=，你可以使用prop = 0.1（例如）来选择每个组的 10% 的行。例 如，以下代码查找每个目的地到达时延误最严重的航班：

flights |> 
  group_by(dest) |> 
  slice_max(arr_delay, n = 1) |>
  relocate(dest)
#> # A tibble: 108 × 19
#> # Groups:   dest [105]
#>   dest   year month   day dep_time sched_dep_time dep_delay arr_time
#>   <chr> <int> <int> <int>    <int>          <int>     <dbl>    <int>
#> 1 ABQ    2013     7    22     2145           2007        98      132
#> 2 ACK    2013     7    23     1139            800       219     1250
#> 3 ALB    2013     1    25      123           2000       323      229
#> 4 ANC    2013     8    17     1740           1625        75     2042
#> 5 ATL    2013     7    22     2257            759       898      121
#> 6 AUS    2013     7    10     2056           1505       351     2347
#> # ℹ 102 more rows
#> # ℹ 11 more variables: sched_arr_time <int>, arr_delay <dbl>, …

请注意，虽然有 105 个目的地，但我们这里得到了 108 行，这是怎么回事？s lice_min()和slice_max()会保留并列的值，所以n = 1意味着给我们所有具有最高值的行。如 果你想要每个组正好一行，你可以设置with_ties = FALSE。

这与使用summarize()计算最大延误类似，但你会得到整个对应的行（如果有并列值，则是多行），而不是单个汇总统计量。

3.5.4 按多变量分组

可以使用多个变量创建分组。例 如，我们可以为每个日期创建一个组。

daily <- flights |>  
  group_by(year, month, day)
daily
#> # A tibble: 336,776 × 19
#> # Groups:   year, month, day [365]
#>    year month   day dep_time sched_dep_time dep_delay arr_time sched_arr_time
#>   <int> <int> <int>    <int>          <int>     <dbl>    <int>          <int>
#> 1  2013     1     1      517            515         2      830            819
#> 2  2013     1     1      533            529         4      850            830
#> 3  2013     1     1      542            540         2      923            850
#> 4  2013     1     1      544            545        -1     1004           1022
#> 5  2013     1     1      554            600        -6      812            837
#> 6  2013     1     1      554            558        -4      740            728
#> # ℹ 336,770 more rows
#> # ℹ 11 more variables: arr_delay <dbl>, carrier <chr>, flight <int>, …
…
