5 数据整齐 – R数据科学 (第二版)
…
你可以用多种方式表示相同的基础数据。下 面的例子展示了以三种不同的方式组织的同一数据。每 个数据集都显示了四个变量的相同值：国家（country）、年份（year）、人口（population）和记录在案的结核病（tuberculosis，TB）病例数（cases），但每个数据集都以不同的方式组织这些值。

table1
#> # A tibble: 6 × 4
#>   country      year  cases population
#>   <chr>       <dbl>  <dbl>      <dbl>
#> 1 Afghanistan  1999    745   19987071
#> 2 Afghanistan  2000   2666   20595360
#> 3 Brazil       1999  37737  172006362
#> 4 Brazil       2000  80488  174504898
#> 5 China        1999 212258 1272915272
#> 6 China        2000 213766 1280428583

table2
#> # A tibble: 12 × 4
#>   country      year type           count
#>   <chr>       <dbl> <chr>          <dbl>
#> 1 Afghanistan  1999 cases            745
#> 2 Afghanistan  1999 population  19987071
#> 3 Afghanistan  2000 cases           2666
#> 4 Afghanistan  2000 population  20595360
#> 5 Brazil       1999 cases          37737
#> 6 Brazil       1999 population 172006362
#> # ℹ 6 more rows
…
数据通常是为了方便除了分析以外的其他目的而组织的。例 如，数据通常以易于数据录入而不是分析的结构来组织。

大多数人并不熟悉整齐数据的原则，除非你花很多时间处理数据，否则很难自己推导出这些原则。

这意味着大多数实际分析至少需要进行一些整理。首 先要弄清楚基础变量和观测值是什么，有时这很简单，有时你需要咨询最初生成数据的人；接下来，你需要将数据重塑（pivot）为整齐的形式，将变量放在列中，将观测值放在行中。

tidyr包提供了两个用于数据重塑的函数：pivot_longer()和pivot_wider()。我 们将首先从pivot_longer()开始，因为它是最常见的情况。让 我们深入探讨一些示例。

5.3.1 列名中的数据

billboard数据集记录了 2000 年歌曲的 Billboard 排行榜排名:

billboard
#> # A tibble: 317 × 79
#>   artist       track               date.entered   wk1   wk2   wk3   wk4   wk5
#>   <chr>        <chr>               <date>       <dbl> <dbl> <dbl> <dbl> <dbl>
#> 1 2 Pac        Baby Don't Cry (Ke… 2000-02-26      87    82    72    77    87
#> 2 2Ge+her      The Hardest Part O… 2000-09-02      91    87    92    NA    NA
#> 3 3 Doors Down Kryptonite          2000-04-08      81    70    68    67    66
#> 4 3 Doors Down Loser               2000-10-21      76    76    72    69    67
#> 5 504 Boyz     Wobble Wobble       2000-04-15      57    34    25    17    17
#> 6 98^0         Give Me Just One N… 2000-08-19      51    39    34    26    26
#> # ℹ 311 more rows
#> # ℹ 71 more variables: wk6 <dbl>, wk7 <dbl>, wk8 <dbl>, wk9 <dbl>, …

在这个数据集中，每个观测都是一首歌。前 三列（artist、track 和 date.entered）是描述歌曲的变量。然 后有76列（wk1-wk76）描述了歌曲在每周的排名1。 在这里，列名是一个变量（week），而单元格的值是另一个变量（rank）。

为了整理这个数据，我们使用 pivot_longer():

billboard |> 
  pivot_longer(
    cols = starts_with("wk"), 
    names_to = "week", 
    values_to = "rank"
  )
#> # A tibble: 24,092 × 5
#>    artist track                   date.entered week   rank
#>    <chr>  <chr>                   <date>       <chr> <dbl>
#>  1 2 Pac  Baby Don't Cry (Keep... 2000-02-26   wk1      87
#>  2 2 Pac  Baby Don't Cry (Keep... 2000-02-26   wk2      82
#>  3 2 Pac  Baby Don't Cry (Keep... 2000-02-26   wk3      72
#>  4 2 Pac  Baby Don't Cry (Keep... 2000-02-26   wk4      77
#>  5 2 Pac  Baby Don't Cry (Keep... 2000-02-26   wk5      87
#>  6 2 Pac  Baby Don't Cry (Keep... 2000-02-26   wk6      94
#>  7 2 Pac  Baby Don't Cry (Keep... 2000-02-26   wk7      99
#>  8 2 Pac  Baby Don't Cry (Keep... 2000-02-26   wk8      NA
#>  9 2 Pac  Baby Don't Cry (Keep... 2000-02-26   wk9      NA
#> 10 2 Pac  Baby Don't Cry (Keep... 2000-02-26   wk10     NA
#> # ℹ 24,082 more rows
…
values_to 用于命名单元格值中存储的变量，我们将其命名为rank。

请注意，代码中“week”和“rank”被引号括起来，因为这些是我们创建的新变量，在运行pivot_longer()调用时它们还不在数据中。

现在让我们把注意力转向得到的长数据框。如 果一首歌在前100名中的时间少于76周，会发生什么？以 2 Pac的《Baby Don’t Cry》为例。上 面的输出表明它只在前100名中待了7周，而其余所有周都填充了缺失值。这 些NA并不真正代表未知的观测值，它们是由于数据集的结构而被迫存在的，因此我们可以要求pivot_longer()通过设置values_drop_na = TRUE来删除它们：

billboard |> 
  pivot_longer(
    cols = starts_with("wk"), 
    names_to = "week", 
    values_to = "rank",
    values_drop_na = TRUE
  )
#> # A tibble: 5,307 × 5
#>   artist track                   date.entered week   rank
#>   <chr>  <chr>                   <date>       <chr> <dbl>
#> 1 2 Pac  Baby Don't Cry (Keep... 2000-02-26   wk1      87
#> 2 2 Pac  Baby Don't Cry (Keep... 2000-02-26   wk2      82
#> 3 2 Pac  Baby Don't Cry (Keep... 2000-02-26   wk3      72
#> 4 2 Pac  Baby Don't Cry (Keep... 2000-02-26   wk4      77
#> 5 2 Pac  Baby Don't Cry (Keep... 2000-02-26   wk5      87
#> 6 2 Pac  Baby Don't Cry (Keep... 2000-02-26   wk6      94
#> # ℹ 5,301 more rows
…
现在数据已经整齐了，但我们可以通过使用mutate()和readr::parse_number()将week的值从字符串转换为数字，以使未来的计算更加方便。p arse_number()是一个方便的函数，它会从字符串中提取第一个数字，忽略其他所有文本。

billboard_longer <- billboard |> 
  pivot_longer(
    cols = starts_with("wk"), 
    names_to = "week", 
    values_to = "rank",
    values_drop_na = TRUE
  ) |> 
  mutate(
    week = parse_number(week)
  )
billboard_longer
#> # A tibble: 5,307 × 5
#>   artist track                   date.entered  week  rank
#>   <chr>  <chr>                   <date>       <dbl> <dbl>
#> 1 2 Pac  Baby Don't Cry (Keep... 2000-02-26       1    87
#> 2 2 Pac  Baby Don't Cry (Keep... 2000-02-26       2    82
#> 3 2 Pac  Baby Don't Cry (Keep... 2000-02-26       3    72
#> 4 2 Pac  Baby Don't Cry (Keep... 2000-02-26       4    77
#> 5 2 Pac  Baby Don't Cry (Keep... 2000-02-26       5    87
#> 6 2 Pac  Baby Don't Cry (Keep... 2000-02-26       6    94
#> # ℹ 5,301 more rows
…
图 5.5: The number of values is preserved (not repeated), but unwound row-by-row.

5.3.3 列名中包含多个变量

当列名中融合了多个信息片段而你希望将这些信息分散到独立的新变量中时，情况就会变得更加复杂。这 里以你之前看到的table1等表的源头数据集who2为例：

who2
#> # A tibble: 7,240 × 58
#>   country      year sp_m_014 sp_m_1524 sp_m_2534 sp_m_3544 sp_m_4554
#>   <chr>       <dbl>    <dbl>     <dbl>     <dbl>     <dbl>     <dbl>
#> 1 Afghanistan  1980       NA        NA        NA        NA        NA
#> 2 Afghanistan  1981       NA        NA        NA        NA        NA
#> 3 Afghanistan  1982       NA        NA        NA        NA        NA
#> 4 Afghanistan  1983       NA        NA        NA        NA        NA
#> 5 Afghanistan  1984       NA        NA        NA        NA        NA
#> 6 Afghanistan  1985       NA        NA        NA        NA        NA
#> # ℹ 7,234 more rows
#> # ℹ 51 more variables: sp_m_5564 <dbl>, sp_m_65 <dbl>, sp_f_014 <dbl>, …

这个数据集由世界卫生组织收集，记录了关于结核病诊断的信息,其中有两个列已经是变量且易于解读：country和year。接 着是56个像sp_m_014、ep_m_4554和rel_m_3544这样的列。如 果你长时间盯着这些列看就会发现一个规律。每 个列名都由三部分组成，由_分隔。第 一部分sp/rel/ep描述了用于诊断的方法；第二部分m/f是性别（在这个数据集中被编码为二进制变量）；第三部分，014/1524/2534/3544/4554/5564/65是年龄范围（例如，014代表0-14岁）。

因此，在这种情况下，who2数据集中记录了六条信息：country和year（已经是列）；诊断方法、性别和年龄范围类别（包含在其他列名中），以及该类别中的患者数量（单元格值）。为 了将这六条信息组织到六个单独的列中，我们使用pivot_longer()函数，并为names_to提供一个列名字符串向量，以及为names_sep提供一个指令来将原始变量名分割成片段，并为values_to提供一个列名：

who2 |> 
  pivot_longer(
    cols = !(country:year),
    names_to = c("diagnosis", "gender", "age"), 
    names_sep = "_",
    values_to = "count"
  )
#> # A tibble: 405,440 × 6
#>   country      year diagnosis gender age   count
#>   <chr>       <dbl> <chr>     <chr>  <chr> <dbl>
#> 1 Afghanistan  1980 sp        m      014      NA
#> 2 Afghanistan  1980 sp        m      1524     NA
#> 3 Afghanistan  1980 sp        m      2534     NA
#> 4 Afghanistan  1980 sp        m      3544     NA
#> 5 Afghanistan  1980 sp        m      4554     NA
#> 6 Afghanistan  1980 sp        m      5564     NA
#> # ℹ 405,434 more rows
…
这个数据集包含了五个家庭的数据，每个家庭最多有两个孩子的姓名和出生日期。数 据集中的新挑战是列名包含了两个变量的名称（dob、name）和另一个变量（child，其值为1或2）的值。为 了解决这个问题，我们再次需要向names_to提供一个向量，但这次我们使用特殊的".value"哨兵值（sentinel）；这不是变量的名称，而是一个独特的值，它告诉pivot_longer()做一些不同的事情。这 会覆盖通常的values_to参数，使用重塑后的列名的第一个组成部分作为输出中的变量名。

household |> 
  pivot_longer(
    cols = !family, 
    names_to = c(".value", "child"), 
    names_sep = "_", 
    values_drop_na = TRUE
  )
#> # A tibble: 9 × 4
#>   family child  dob        name 
#>    <int> <chr>  <date>     <chr>
#> 1      1 child1 1998-11-26 Susan
#> 2      1 child2 2000-01-29 Jose 
#> 3      2 child1 1996-06-22 Mark 
#> 4      3 child1 2002-07-11 Sam  
#> 5      3 child2 2004-04-05 Seth 
#> 6      4 child1 2004-10-10 Craig
#> # ℹ 3 more rows
…
图 5.7: Pivoting with names_to = c(".value", "num") splits the column names into two components: the first part determines the output column name (x or y), and the second part determines the value of the num column.

5.4 数据转换—宽格式

到目前为止，我们已经使用pivot_longer()函数来解决了一个常见问题，即值最终出现在列名中的情况。接 下来，我们将转置（HA HA，这里是一个双关语，因为pivot在英语中也有“转置”的意思）到pivot_wider()函数，该函数通过增加列和减少行来使数据集变宽，这在一个观测分布在多行时特别有用。这 种情况在实际数据中较少出现，但在处理政府数据时似乎很常见。

我们将首先查看cms_patient_experience数据集，这是一个来自医疗保险和医疗补助服务中心（Centers of Medicare and Medicaid Services）的数据集，该数据集收集了关于患者体验的数据：

cms_patient_experience
#> # A tibble: 500 × 5
#>   org_pac_id org_nm                     measure_cd   measure_title   prf_rate
#>   <chr>      <chr>                      <chr>        <chr>              <dbl>
#> 1 0446157747 USC CARE MEDICAL GROUP INC CAHPS_GRP_1  CAHPS for MIPS…       63
#> 2 0446157747 USC CARE MEDICAL GROUP INC CAHPS_GRP_2  CAHPS for MIPS…       87
#> 3 0446157747 USC CARE MEDICAL GROUP INC CAHPS_GRP_3  CAHPS for MIPS…       86
#> 4 0446157747 USC CARE MEDICAL GROUP INC CAHPS_GRP_5  CAHPS for MIPS…       57
#> 5 0446157747 USC CARE MEDICAL GROUP INC CAHPS_GRP_8  CAHPS for MIPS…       85
#> 6 0446157747 USC CARE MEDICAL GROUP INC CAHPS_GRP_12 CAHPS for MIPS…       24
#> # ℹ 494 more rows
…
这两列都不会成为特别好的变量名：measure_cd没有暗示变量的含义，而measure_title是一个包含空格的长句子。目 前我们将使用measure_cd作为新列名的来源，但在实际分析中，你可能希望创建既简短又有意义的变量名。

pivot_wider()与pivot_longer()的操作正好相反。它 不需要定义新的列名，而是选择一个现有列来提供值（values_from），并选择另一个列来定义新的列名（names_from）。

cms_patient_experience |> 
  pivot_wider(
    names_from = measure_cd,
    values_from = prf_rate
  )
#> # A tibble: 500 × 9
#>   org_pac_id org_nm                   measure_title   CAHPS_GRP_1 CAHPS_GRP_2
#>   <chr>      <chr>                    <chr>                 <dbl>       <dbl>
#> 1 0446157747 USC CARE MEDICAL GROUP … CAHPS for MIPS…          63          NA
#> 2 0446157747 USC CARE MEDICAL GROUP … CAHPS for MIPS…          NA          87
#> 3 0446157747 USC CARE MEDICAL GROUP … CAHPS for MIPS…          NA          NA
#> 4 0446157747 USC CARE MEDICAL GROUP … CAHPS for MIPS…          NA          NA
#> 5 0446157747 USC CARE MEDICAL GROUP … CAHPS for MIPS…          NA          NA
#> 6 0446157747 USC CARE MEDICAL GROUP … CAHPS for MIPS…          NA          NA
#> # ℹ 494 more rows
#> # ℹ 4 more variables: CAHPS_GRP_3 <dbl>, CAHPS_GRP_5 <dbl>, …

输出的结果看起来不太对，因为似乎每个组织仍然有多行数据。这 是因为我们还需告诉pivot_wider()哪个列或哪些列的值能够唯一地标识每一行；在这个例子中，这些是以 "org" 开头的变量。

cms_patient_experience |> 
  pivot_wider(
    id_cols = starts_with("org"),
    names_from = measure_cd,
    values_from = prf_rate
  )
#> # A tibble: 95 × 8
#>   org_pac_id org_nm           CAHPS_GRP_1 CAHPS_GRP_2 CAHPS_GRP_3 CAHPS_GRP_5
#>   <chr>      <chr>                  <dbl>       <dbl>       <dbl>       <dbl>
#> 1 0446157747 USC CARE MEDICA…          63          87          86          57
#> 2 0446162697 ASSOCIATION OF …          59          85          83          63
#> 3 0547164295 BEAVER MEDICAL …          49          NA          75          44
#> 4 0749333730 CAPE PHYSICIANS…          67          84          85          65
#> 5 0840104360 ALLIANCE PHYSIC…          66          87          87          64
#> 6 0840109864 REX HOSPITAL INC          73          87          84          67
#> # ℹ 89 more rows
#> # ℹ 2 more variables: CAHPS_GRP_8 <dbl>, CAHPS_GRP_12 <dbl>
…
