1 数据可视化 – R数据科学 (第二版)
…
变量：变量是可以测量的数量、质量或属性。

值：值是你测量一个变量时的状态，一个变量的值可能会随着测量的不同而变化。

观测：观测是在相似条件下进行的一组测量（通常在相同的时间和相同的对象上进行）。一 个观测会包含几个值，每个值与不同的变量相关联。我 们有时将一个观测称为一个数据点。

表格数据：表格数据是一组值，每个值与一个变量和一个观测相关。如 果将每个值放在自己的“单元格”中，将每个变量放在自己的列中，将每个观测放在自己的行中，则表格数据是整洁的。

在这种情况下，变量指的是所有企鹅的一个属性，而观测值指的是单个企鹅的所有属性。

在控制台中键入数据框的名称，R会输出其内容的预览。需 要注意的是这个预览的顶部显示有tibble 。在 tidyverse中，我们使用称为tibbles的特殊数据框，随后你将了解到更多。

penguins
#> # A tibble: 344 × 8
#>   species island    bill_length_mm bill_depth_mm flipper_length_mm
#>   <fct>   <fct>              <dbl>         <dbl>             <int>
#> 1 Adelie  Torgersen           39.1          18.7               181
#> 2 Adelie  Torgersen           39.5          17.4               186
#> 3 Adelie  Torgersen           40.3          18                 195
#> 4 Adelie  Torgersen           NA            NA                  NA
#> 5 Adelie  Torgersen           36.7          19.3               193
#> 6 Adelie  Torgersen           39.3          20.6               190
#> # ℹ 338 more rows
#> # ℹ 3 more variables: body_mass_g <int>, sex <fct>, year <int>
…
