21 数据库 – R数据科学 (第二版)
…
如果你在一个实际项目中使用 duckdb，我们强烈推荐你学习duckdb_read_csv()和duckdb_register_arrow()。这 两个函数为你提供了强大且高效的方式，可以直接将数据快速加载到 duckdb中，而无需首先将数据加载到 R 中。在 小节 26.4.1 我们还将展示一种有用的技术，用于将多个文件加载到数据库中。

21.3.3 DBI基础

你可以通过使用其他一些DBI函数来检查数据是否正确加载：dbListTables()函数列出了数据库中的所有表，而dbReadTable()函数则检索表的内容。

dbListTables(con)
#> [1] "diamonds" "mpg"

con |> 
  dbReadTable("diamonds") |> 
  as_tibble()
#> # A tibble: 53,940 × 10
#>   carat cut       color clarity depth table price     x     y     z
#>   <dbl> <fct>     <fct> <fct>   <dbl> <dbl> <int> <dbl> <dbl> <dbl>
#> 1  0.23 Ideal     E     SI2      61.5    55   326  3.95  3.98  2.43
#> 2  0.21 Premium   E     SI1      59.8    61   326  3.89  3.84  2.31
#> 3  0.23 Good      E     VS1      56.9    65   327  4.05  4.07  2.31
#> 4  0.29 Premium   I     VS2      62.4    58   334  4.2   4.23  2.63
#> 5  0.31 Good      J     SI2      63.3    58   335  4.34  4.35  2.75
#> 6  0.24 Very Good J     VVS2     62.8    57   336  3.94  3.96  2.48
#> # ℹ 53,934 more rows

dbReadTable()函数返回一个data.frame，所以我们使用as_tibble()函数将其转换为tibble，以便输出更美观。

如果你已经熟悉 SQL，你可以使用dbGetQuery()函数来执行数据库查询并获取结果：

sql <- "
  SELECT carat, cut, clarity, color, price 
  FROM diamonds 
  WHERE price > 15000
"
as_tibble(dbGetQuery(con, sql))
#> # A tibble: 1,655 × 5
#>   carat cut       clarity color price
#>   <dbl> <fct>     <fct>   <fct> <int>
#> 1  1.54 Premium   VS2     E     15002
#> 2  1.19 Ideal     VVS1    F     15005
#> 3  2.1  Premium   SI1     I     15007
#> 4  1.69 Ideal     SI1     D     15011
#> 5  1.5  Very Good VVS2    G     15013
#> 6  1.73 Very Good VS1     G     15014
#> # ℹ 1,649 more rows
…
你可以通过dplyr函数show_query()来查看生成的SQL代码。如 果你了解dplyr，这是一个学习SQL的好方法！编 写一些dplyr代码，让dbplyr将其转换为SQL，然后尝试理解这两种语言是如何对应的。

big_diamonds_db |>
  show_query()
#> <SQL>
#> SELECT carat, cut, color, clarity, price
#> FROM diamonds
#> WHERE (price > 15000.0)

要将所有数据返回到R中，调用collect()函数。在 幕后，这个函数会生成SQL语句，调用dbGetQuery()来获取数据，然后将结果转换为一个tibble：

big_diamonds <- big_diamonds_db |> 
  collect()
big_diamonds
#> # A tibble: 1,655 × 5
#>   carat cut       color clarity price
#>   <dbl> <fct>     <fct> <fct>   <int>
#> 1  1.54 Premium   E     VS2     15002
#> 2  1.19 Ideal     F     VVS1    15005
#> 3  2.1  Premium   I     SI1     15007
#> 4  1.69 Ideal     D     SI1     15011
#> 5  1.5  Very Good G     VVS2    15013
#> 6  1.73 Very Good G     VS1     15014
#> # ℹ 1,649 more rows
…
