17 日期和时间 – R数据科学 (第二版)
…
你也可以通过提供时区来强制从日期创建日期-时间：

ymd("2017-01-31", tz = "UTC")
#> [1] "2017-01-31 UTC"

这里使用的是 UTC1 时区，你知道的可能是 GMT，或者格林威治标准时间，也就是 0° 经线2的时间 。它不使用夏令时，使得计算更加方便 。

17.2.3 从单个组件

有时，日期-时间的各个组件会分散在多个列中，而不是在单个字符串。例 如下面的flights 数据:

flights |> 
  select(year, month, day, hour, minute)
#> # A tibble: 336,776 × 5
#>    year month   day  hour minute
#>   <int> <int> <int> <dbl>  <dbl>
#> 1  2013     1     1     5     15
#> 2  2013     1     1     5     29
#> 3  2013     1     1     5     40
#> 4  2013     1     1     5     45
#> 5  2013     1     1     6      0
#> 6  2013     1     1     5     58
#> # ℹ 336,770 more rows

要从这种类型的输入创建日期/时间，使用make_date()表示日期，或使用make_datetime()表示日期-时间:

flights |> 
  select(year, month, day, hour, minute) |> 
  mutate(departure = make_datetime(year, month, day, hour, minute))
#> # A tibble: 336,776 × 6
#>    year month   day  hour minute departure          
#>   <int> <int> <int> <dbl>  <dbl> <dttm>             
#> 1  2013     1     1     5     15 2013-01-01 05:15:00
#> 2  2013     1     1     5     29 2013-01-01 05:29:00
#> 3  2013     1     1     5     40 2013-01-01 05:40:00
#> 4  2013     1     1     5     45 2013-01-01 05:45:00
#> 5  2013     1     1     6      0 2013-01-01 06:00:00
#> 6  2013     1     1     5     58 2013-01-01 05:58:00
#> # ℹ 336,770 more rows
…
flights_dt <- flights |> 
  filter(!is.na(dep_time), !is.na(arr_time)) |> 
  mutate(
    dep_time = make_datetime_100(year, month, day, dep_time),
    arr_time = make_datetime_100(year, month, day, arr_time),
    sched_dep_time = make_datetime_100(year, month, day, sched_dep_time),
    sched_arr_time = make_datetime_100(year, month, day, sched_arr_time)
  ) |> 
  select(origin, dest, ends_with("delay"), ends_with("time"))

flights_dt
#> # A tibble: 328,063 × 9
#>   origin dest  dep_delay arr_delay dep_time            sched_dep_time     
#>   <chr>  <chr>     <dbl>     <dbl> <dttm>              <dttm>             
#> 1 EWR    IAH           2        11 2013-01-01 05:17:00 2013-01-01 05:15:00
#> 2 LGA    IAH           4        20 2013-01-01 05:33:00 2013-01-01 05:29:00
#> 3 JFK    MIA           2        33 2013-01-01 05:42:00 2013-01-01 05:40:00
#> 4 JFK    BQN          -1       -18 2013-01-01 05:44:00 2013-01-01 05:45:00
#> 5 LGA    ATL          -6       -25 2013-01-01 05:54:00 2013-01-01 06:00:00
#> 6 EWR    ORD          -4        12 2013-01-01 05:54:00 2013-01-01 05:58:00
#> # ℹ 328,057 more rows
#> # ℹ 3 more variables: arr_time <dttm>, sched_arr_time <dttm>, …
…
# Daylight saving time
one_am + ddays(1)
#> [1] "2026-03-09 02:00:00 EDT"
one_am + days(1)
#> [1] "2026-03-09 01:00:00 EDT"

让我们使用周期来修复与航班日期相关的一个异常问题。一 些飞机似乎在离开纽约市之前就已经到达了目的地。

flights_dt |> 
  filter(arr_time < dep_time) 
#> # A tibble: 10,633 × 9
#>   origin dest  dep_delay arr_delay dep_time            sched_dep_time     
#>   <chr>  <chr>     <dbl>     <dbl> <dttm>              <dttm>             
#> 1 EWR    BQN           9        -4 2013-01-01 19:29:00 2013-01-01 19:20:00
#> 2 JFK    DFW          59        NA 2013-01-01 19:39:00 2013-01-01 18:40:00
#> 3 EWR    TPA          -2         9 2013-01-01 20:58:00 2013-01-01 21:00:00
#> 4 EWR    SJU          -6       -12 2013-01-01 21:02:00 2013-01-01 21:08:00
#> 5 EWR    SFO          11       -14 2013-01-01 21:08:00 2013-01-01 20:57:00
#> 6 LGA    FLL         -10        -2 2013-01-01 21:20:00 2013-01-01 21:30:00
#> # ℹ 10,627 more rows
#> # ℹ 3 more variables: arr_time <dttm>, sched_arr_time <dttm>, …
…
