16 因子 – R数据科学 (第二版)
…
df <- read_csv(csv, col_types = cols(month = col_factor(month_levels)))
df$month
#> [1] Jan Feb Mar
#> Levels: Jan Feb Mar Apr May Jun Jul Aug Sep Oct Nov Dec

16.3 一般社会调查

在本章的剩余部分我们将使用forcats::gss_cat，它是来自一般社会调查 (General Social Survey) 的样本数据。该 调查是由芝加哥大学独立研究机构NORC主导，在美国进行的一项长期调查。这 项调查包含数千个问题，因此在gss_cat中Hadley选择了一些问题来说明你在处理因子时会遇到的一些常见挑战。

gss_cat
#> # A tibble: 21,483 × 9
#>    year marital         age race  rincome        partyid           
#>   <int> <fct>         <int> <fct> <fct>          <fct>             
#> 1  2000 Never married    26 White $8000 to 9999  Ind,near rep      
#> 2  2000 Divorced         48 White $8000 to 9999  Not str republican
#> 3  2000 Widowed          67 White Not applicable Independent       
#> 4  2000 Never married    39 White Not applicable Ind,near rep      
#> 5  2000 Divorced         25 White Not applicable Not str democrat  
#> 6  2000 Married          25 White $20000 - 24999 Strong democrat   
#> # ℹ 21,477 more rows
#> # ℹ 3 more variables: relig <fct>, denom <fct>, tvhours <int>
…
16.4.1 练习

tvhours中有一些可疑的大数。均 数是一个好的汇总吗？

对于gss_cat中的每个因子，确定其水平的顺序是任意的还是遵循原则的。

为什么将“Not applicable”移至水平的前端会使其在图的底部显示？

16.5 修改因子水平

比改变水平顺序更有影响力的是修改它们的值。这 允许你明确标签以便适合发表，合并水平以便更好显示。最 通用且强大的工具是fct_recode()，它允许你重编码或改变每个水平的值。例 如，从gss_cat数据框中取出partyid变量：

gss_cat |> count(partyid)
#> # A tibble: 10 × 2
#>   partyid                n
#>   <fct>              <int>
#> 1 No answer            154
#> 2 Don't know             1
#> 3 Other party          393
#> 4 Strong republican   2314
#> 5 Not str republican  3032
#> 6 Ind,near rep        1791
#> # ℹ 4 more rows
这些水平的标签简洁且不一致。让 我们调整一下使它们更长，并且使用平行结构。和 tidyverse中大多数重命名和重新编码函数一样，新值在左侧，旧值在右侧：

gss_cat |>
  mutate(
    partyid = fct_recode(partyid,
      "Republican, strong"    = "Strong republican",
      "Republican, weak"      = "Not str republican",
      "Independent, near rep" = "Ind,near rep",
      "Independent, near dem" = "Ind,near dem",
      "Democrat, weak"        = "Not str democrat",
      "Democrat, strong"      = "Strong democrat"
    )
  ) |>
  count(partyid)
#> # A tibble: 10 × 2
#>   partyid                   n
#>   <fct>                 <int>
#> 1 No answer               154
#> 2 Don't know                1
#> 3 Other party             393
#> 4 Republican, strong     2314
#> 5 Republican, weak       3032
#> 6 Independent, near rep  1791
#> # ℹ 4 more rows
…
gss_cat |>
  mutate(relig = fct_lump_lowfreq(relig)) |>
  count(relig)
#> # A tibble: 2 × 2
#>   relig          n
#>   <fct>      <int>
#> 1 Protestant 10846
#> 2 Other      10637

在这种情况下，它不是很有用：这项调查中的大多数美国人是新教徒，但我们可能想看到更多细节！相 反，我们可以使用fct_lump_n()来指定我们正好想要10个组：

gss_cat |>
  mutate(relig = fct_lump_n(relig, n = 10)) |>
  count(relig, sort = TRUE)
#> # A tibble: 10 × 2
#>   relig          n
#>   <fct>      <int>
#> 1 Protestant 10846
#> 2 Catholic    5124
#> 3 None        3523
#> 4 Christian    689
#> 5 Other        458
#> 6 Jewish       388
#> # ℹ 4 more rows
…
