26 迭代 – R数据科学 (第二版)
…
目前无法使用across()4完成这个操作，但使用pivot_longer()相对来说比较直接：

df_long <- df_paired |> 
  pivot_longer(
    everything(), 
    names_to = c("group", ".value"), 
    names_sep = "_"
  )
df_long
#> # A tibble: 40 × 3
#>   group    val   wts
#>   <chr>  <dbl> <dbl>
#> 1 a      0.715 0.518
#> 2 b     -0.709 0.691
#> 3 c      0.718 0.216
#> 4 d     -0.217 0.733
#> 5 a     -1.09  0.979
#> 6 b     -0.209 0.675
#> # ℹ 34 more rows
…
但是将每个工作表放入自己的变量中将使得在后续的步骤中处理它们变得困难。相 反，如果将它们放入一个单独的对象中，处理起来将更加方便。列 表是完成这项工作的完美工具：

files <- list(
  readxl::read_excel("data/gapminder/1952.xlsx"),
  readxl::read_excel("data/gapminder/1957.xlsx"),
  readxl::read_excel("data/gapminder/1962.xlsx"),
  ...,
  readxl::read_excel("data/gapminder/2007.xlsx")
)

既然已经将这些数据框放入了一个列表中，如何从中取出一个呢？可 以使用files[[i]]来提取第i个元素：

files[[3]]
#> # A tibble: 142 × 5
#>   country     continent lifeExp      pop gdpPercap
#>   <chr>       <chr>       <dbl>    <dbl>     <dbl>
#> 1 Afghanistan Asia         30.3  9240934      821.
#> 2 Albania     Europe       59.3  1476505     1942.
#> 3 Algeria     Africa       45.7 10270856     3014.
#> 4 Angola      Africa       32.0  4561361     3828.
#> 5 Argentina   Americas     64.4 19610538     6857.
#> 6 Australia   Oceania      70.3  9712569    10950.
#> # ℹ 136 more rows
…
list(
  f(x[[1]]),
  f(x[[2]]),
  ...,
  f(x[[n]])
)

所以可以使用map()来获取一个包含12个数据框的列表:

files <- map(paths, readxl::read_excel)
length(files)
#> [1] 16

files[[1]]
#> # A tibble: 142 × 5
#>   country     continent lifeExp      pop gdpPercap
#>   <chr>       <chr>       <dbl>    <dbl>     <dbl>
#> 1 Afghanistan Asia         28.8  8425333      779.
#> 2 Albania     Europe       55.2  1282697     1601.
#> 3 Algeria     Africa       43.1  9279525     2449.
#> 4 Angola      Africa       30.0  4232095     3521.
#> 5 Argentina   Americas     62.5 17876956     5911.
#> 6 Australia   Oceania      69.1  8691212    10040.
#> # ℹ 136 more rows

(这是另一种数据结构，使用str()显示时可能不会特别紧凑，因此你可能希望将其加载到 RStudio 中并使用View()来检查它。)

现在我们可以使用purrr::list_rbind()将这个数据框列表合并成一个单一的数据框：

list_rbind(files)
#> # A tibble: 2,272 × 5
#>   country     continent lifeExp      pop gdpPercap
#>   <chr>       <chr>       <dbl>    <dbl>     <dbl>
#> 1 Afghanistan Asia         28.8  8425333      779.
#> 2 Albania     Europe       55.2  1282697     1601.
#> 3 Algeria     Africa       43.1  9279525     2449.
#> 4 Angola      Africa       30.0  4232095     3521.
#> 5 Argentina   Americas     62.5 17876956     5911.
#> 6 Australia   Oceania      69.1  8691212    10040.
#> # ℹ 2,266 more rows

我们也可以在管道中同时进行这两步:

paths |> 
  map(readxl::read_excel) |> 
  list_rbind()

如果想向read_excel()传递额外的参数怎么办？我 们可以使用与across()相同的方法。例 如，使用n_max = 1来查看数据的前几行通常很有用：

paths |> 
  map(\(path) readxl::read_excel(path, n_max = 1)) |> 
  list_rbind()
#> # A tibble: 16 × 5
#>   country     continent lifeExp      pop gdpPercap
#>   <chr>       <chr>       <dbl>    <dbl>     <dbl>
#> 1 Afghanistan Asia         28.8  8425333      779.
#> 2 Afghanistan Asia         28.8  8425333      779.
#> 3 Afghanistan Asia         30.3  9240934      821.
#> 4 Afghanistan Asia         32.0 10267083      853.
#> 5 Afghanistan Asia         34.0 11537966      836.
#> 6 Afghanistan Asia         36.1 13079460      740.
#> # ℹ 10 more rows
…
这使得对map()的调用简写为:

files <- list(
  "1952.xlsx" = readxl::read_excel("data/gapminder/1952.xlsx"),
  "1957.xlsx" = readxl::read_excel("data/gapminder/1957.xlsx"),
  "1962.xlsx" = readxl::read_excel("data/gapminder/1962.xlsx"),
  ...,
  "2007.xlsx" = readxl::read_excel("data/gapminder/2007.xlsx")
)

你也可以使用[[按名称提取元素:

files[["1962.xlsx"]]
#> # A tibble: 142 × 5
#>   country     continent lifeExp      pop gdpPercap
#>   <chr>       <chr>       <dbl>    <dbl>     <dbl>
#> 1 Afghanistan Asia         32.0 10267083      853.
#> 2 Albania     Europe       64.8  1728137     2313.
#> 3 Algeria     Africa       48.3 11000948     2551.
#> 4 Angola      Africa       34    4826015     4269.
#> 5 Argentina   Americas     65.1 21283783     7133.
#> 6 Australia   Oceania      70.9 10794968    12217.
#> # ℹ 136 more rows

然后，我们使用list_rbind()的names_to参数来告诉它将名称保存到一个名为year的新列中，并使用readr::parse_number()从字符串中提取数字。

paths |> 
  set_names(basename) |> 
  map(readxl::read_excel) |> 
  list_rbind(names_to = "year") |> 
  mutate(year = parse_number(year))
#> # A tibble: 2,272 × 6
#>    year country     continent lifeExp      pop gdpPercap
#>   <dbl> <chr>       <chr>       <dbl>    <dbl>     <dbl>
#> 1  1952 Afghanistan Asia         28.8  8425333      779.
#> 2  1952 Albania     Europe       55.2  1282697     1601.
#> 3  1952 Algeria     Africa       43.1  9279525     2449.
#> 4  1952 Angola      Africa       30.0  4232095     3521.
#> 5  1952 Argentina   Americas     62.5 17876956     5911.
#> 6  1952 Australia   Oceania      69.1  8691212    10040.
#> # ℹ 2,266 more rows

在更复杂的情况下，可能有其他变量存储在目录名中，或者文件名可能包含多个数据部分。在 这种情况下，使用set_names()（不带任何参数）来记录完整路径，然后使用tidyr::separate_wider_delim()和相关函数将它们转换为有用的列。

paths |> 
  set_names() |> 
  map(readxl::read_excel) |> 
  list_rbind(names_to = "year") |> 
  separate_wider_delim(year, delim = "/", names = c(NA, "dir", "file")) |> 
  separate_wider_delim(file, delim = ".", names = c("file", "ext"))
#> # A tibble: 2,272 × 8
#>   dir       file   ext   country     continent lifeExp      pop gdpPercap
#>   <chr>     <chr>  <chr> <chr>       <chr>       <dbl>    <dbl>     <dbl>
#> 1 gapminder 1952 2 xlsx  Afghanistan Asia         28.8  8425333      779.
#> 2 gapminder 1952 2 xlsx  Albania     Europe       55.2  1282697     1601.
#> 3 gapminder 1952 2 xlsx  Algeria     Africa       43.1  9279525     2449.
#> 4 gapminder 1952 2 xlsx  Angola      Africa       30.0  4232095     3521.
#> 5 gapminder 1952 2 xlsx  Argentina   Americas     62.5 17876956     5911.
#> 6 gapminder 1952 2 xlsx  Australia   Oceania      69.1  8691212    10040.
#> # ℹ 2,266 more rows
…
然后，你可以将这个函数应用于所有文件，并可能进行一些重塑操作，以便更容易地看到差异所在。例 如，这可以很容易地验证我们一直在使用的 gapminder 电子表格是否都是同质的：

files |> 
  map(df_types) |> 
  list_rbind(names_to = "file_name") |> 
  select(-n_miss) |> 
  pivot_wider(names_from = col_name, values_from = col_type)
#> # A tibble: 16 × 6
#>   file_name   country   continent lifeExp pop    gdpPercap
#>   <chr>       <chr>     <chr>     <chr>   <chr>  <chr>    
#> 1 1952 2.xlsx character character double  double double   
#> 2 1952.xlsx   character character double  double double   
#> 3 1957.xlsx   character character double  double double   
#> 4 1962.xlsx   character character double  double double   
#> 5 1967.xlsx   character character double  double double   
#> 6 1972.xlsx   character character double  double double   
#> # ℹ 10 more rows
…
有时在同时处理许多文件时，不可能将所有数据一次性加载到内存中，因此你无法使用map(files, read_csv)。处 理这个问题的一种方法是将数据加载到数据库中，这样你就可以使用dbplyr仅访问你需要的部分。

如果你很幸运，你所使用的数据库包会提供一个方便的函数，该函数接受一个路径向量并将它们全部加载到数据库中。这 就是duckdb的duckdb_read_csv()函数的情况。

con <- DBI::dbConnect(duckdb::duckdb())
duckdb::duckdb_read_csv(con, "gapminder", paths)

这种方法在这里会很有效，但我们没有 csv 文件，而是 Excel 电子表格，所以必须“手动”进行。当 你有一堆csv，而你正在使用的数据库没有一个函数可以将它们全部加载进来时，学习手工操作也会对你有所帮助。

我们需要首先创建一个表来填充数据。最 简单的方法是通过创建一个模板，即一个包含我们想要的所有列但只包含样本数据的虚拟数据框。对 于 gapminder 数据，我们可以通过读取单个文件并向其添加年份来创建该模板：

template <- readxl::read_excel(paths[[1]])
template$year <- 1952
template
#> # A tibble: 142 × 6
#>   country     continent lifeExp      pop gdpPercap  year
#>   <chr>       <chr>       <dbl>    <dbl>     <dbl> <dbl>
#> 1 Afghanistan Asia         28.8  8425333      779.  1952
#> 2 Albania     Europe       55.2  1282697     1601.  1952
#> 3 Algeria     Africa       43.1  9279525     2449.  1952
#> 4 Angola      Africa       30.0  4232095     3521.  1952
#> 5 Argentina   Americas     62.5 17876956     5911.  1952
#> 6 Australia   Oceania      69.1  8691212    10040.  1952
#> # ℹ 136 more rows
…
26.4.2 编写csv文件

如果我们想要编写多个 csv 文件 (每个组一个) , 那么同样的基本原则也适用。让 我们想象一下，我们想要获取ggplot2::diamonds数据，并为每种clarity保存一个 csv 文件。首 先，我们需要创建这些单独的数据集。可 以通过多种方式做到这一点，但有一种我们特别喜欢的方法：group_nest()。

by_clarity <- diamonds |> 
  group_nest(clarity)

by_clarity
#> # A tibble: 8 × 2
#>   clarity               data
#>   <ord>   <list<tibble[,9]>>
#> 1 I1               [741 × 9]
#> 2 SI2            [9,194 × 9]
#> 3 SI1           [13,065 × 9]
#> 4 VS2           [12,258 × 9]
#> 5 VS1            [8,171 × 9]
#> 6 VVS2           [5,066 × 9]
#> # ℹ 2 more rows

这会提供给我们一个新的tibble ，它有八行两列。c larity是我们的分组变量，而data是一个列表列，它包含每个clarity值对应的一个数据框：

by_clarity$data[[1]]
#> # A tibble: 741 × 9
#>   carat cut       color depth table price     x     y     z
#>   <dbl> <ord>     <ord> <dbl> <dbl> <int> <dbl> <dbl> <dbl>
#> 1  0.32 Premium   E      60.9    58   345  4.38  4.42  2.68
#> 2  1.17 Very Good J      60.2    61  2774  6.83  6.9   4.13
#> 3  1.01 Premium   F      61.8    60  2781  6.39  6.36  3.94
#> 4  1.01 Fair      E      64.5    58  2788  6.29  6.21  4.03
#> 5  0.96 Ideal     F      60.7    55  2801  6.37  6.41  3.88
#> 6  1.04 Premium   G      62.2    58  2801  6.46  6.41  4   
#> # ℹ 735 more rows

在这里，让我们使用mutate()和str_glue()创建一个列来给出输出文件的名称：

by_clarity <- by_clarity |> 
  mutate(path = str_glue("diamonds-{clarity}.csv"))

by_clarity
#> # A tibble: 8 × 3
#>   clarity               data path             
#>   <ord>   <list<tibble[,9]>> <glue>           
#> 1 I1               [741 × 9] diamonds-I1.csv  
#> 2 SI2            [9,194 × 9] diamonds-SI2.csv 
#> 3 SI1           [13,065 × 9] diamonds-SI1.csv 
#> 4 VS2           [12,258 × 9] diamonds-VS2.csv 
#> 5 VS1            [8,171 × 9] diamonds-VS1.csv 
#> 6 VVS2           [5,066 × 9] diamonds-VVS2.csv
#> # ℹ 2 more rows
…
