9 图层 – R数据科学 (第二版)
…
本章重点介绍ggplot2。要 访问本章中使用的数据集、帮助页面和函数，请运行以下代码加载tidyverse:

library(tidyverse)

9.2 美学映射

“图片的最大价值在于它能够迫使我们注意到我们从未预期到的内容。”

— John Tukey

请记住，ggplot2 包附带的 mpg 数据框包含了关于38种不同汽车型号的234条观测数据。

mpg
#> # A tibble: 234 × 11
#>   manufacturer model displ  year   cyl trans      drv     cty   hwy fl   
#>   <chr>        <chr> <dbl> <int> <int> <chr>      <chr> <int> <int> <chr>
#> 1 audi         a4      1.8  1999     4 auto(l5)   f        18    29 p    
#> 2 audi         a4      1.8  1999     4 manual(m5) f        21    29 p    
#> 3 audi         a4      2    2008     4 manual(m6) f        20    31 p    
#> 4 audi         a4      2    2008     4 auto(av)   f        21    30 p    
#> 5 audi         a4      2.8  1999     6 auto(l5)   f        16    26 p    
#> 6 audi         a4      2.8  1999     6 manual(m5) f        18    26 p    
#> # ℹ 228 more rows
#> # ℹ 1 more variable: class <chr>
…
