15 正则表达式 – R数据科学 (第二版)
…
既然你已经掌握了正则表达式的基础知识，接下来就让我们使用stringr和tidyr函数来应用它们吧。在 以下部分，你将学习如何检测匹配项是否存在，如何计算匹配项的数量，如何用固定文本替换匹配项，以及如何使用模式来提取文本。

15.3.1 检测匹配项

str_detect() 函数返回一个逻辑向量，如果模式与字符向量中的某个元素匹配，则返回TRUE，否则返回FALSE：

str_detect(c("a", "b", "c"), "[aeiou]")
#> [1]  TRUE FALSE FALSE

由于str_detect()返回一个与初始向量长度相同的逻辑向量，因此能与filter()搭配很好。例 如，这段代码用于查找所有包含小写字母”x”的最受欢迎的名字：

babynames |> 
  filter(str_detect(name, "x")) |> 
  count(name, wt = n, sort = TRUE)
#> # A tibble: 974 × 2
#>   name           n
#>   <chr>      <int>
#> 1 Alexander 665492
#> 2 Alexis    399551
#> 3 Alex      278705
#> 4 Alexandra 232223
#> 5 Max       148787
#> 6 Alexa     123032
#> # ℹ 968 more rows
…
str_count("abababa", "aba")
#> [1] 2
str_view("abababa", "aba")
#> [1] │ <aba>b<aba>

str_count()与mutate()结合使用是很自然的。下 面的示例使用str_count()与字符类来计算每个名字中的元音和辅音字母的数量。

babynames |> 
  count(name) |> 
  mutate(
    vowels = str_count(name, "[aeiou]"),
    consonants = str_count(name, "[^aeiou]")
  )
#> # A tibble: 97,310 × 4
#>   name          n vowels consonants
#>   <chr>     <int>  <int>      <int>
#> 1 Aaban        10      2          3
#> 2 Aabha         5      2          3
#> 3 Aabid         2      2          3
#> 4 Aabir         1      2          3
#> 5 Aabriella     5      4          5
#> 6 Aada          1      2          2
#> # ℹ 97,304 more rows
…
str_count(str_to_lower(name), "[aeiou]")。

在处理字符串时，这种多样化的方法是非常典型的——通常有多种方式可以达到你的目标，要么是通过使你的模式更复杂，要么是对你的字符串进行一些预处理。如 果你在使用一种方法时遇到困难，从另一个角度解决问题往往是有用的。

在这种情况下，由于我们对名字应用了两个函数，我认为先转换它更容易：

babynames |> 
  count(name) |> 
  mutate(
    name = str_to_lower(name),
    vowels = str_count(name, "[aeiou]"),
    consonants = str_count(name, "[^aeiou]")
  )
#> # A tibble: 97,310 × 4
#>   name          n vowels consonants
#>   <chr>     <int>  <int>      <int>
#> 1 aaban        10      3          2
#> 2 aabha         5      3          2
#> 3 aabid         2      3          2
#> 4 aabir         1      3          2
#> 5 aabriella     5      5          4
#> 6 aada          1      3          1
#> # ℹ 97,304 more rows
…
要使用separate_wider_regex()提取这些数据，我们只需要构建一系列与每个部分匹配的正则表达式。如 果希望该部分内容出现在输出中，给它指定一个名称：

df |> 
  separate_wider_regex(
    str,
    patterns = c(
      "<", 
      name = "[A-Za-z]+", 
      ">-", 
      gender = ".",
      "_",
      age = "[0-9]+"
    )
  )
#> # A tibble: 7 × 3
#>   name    gender age  
#>   <chr>   <chr>  <chr>
#> 1 Sheryl  F      34   
#> 2 Kisha   F      45   
#> 3 Brandon N      33   
#> 4 Sharon  F      38   
#> 5 Penny   F      58   
#> 6 Justin  M      41   
#> # ℹ 1 more row
…
你可以将其转换为 tibble 并给列命名：

sentences |> 
  str_match("the (\\w+) (\\w+)") |> 
  as_tibble(.name_repair = "minimal") |> 
  set_names("match", "word1", "word2")
#> # A tibble: 720 × 3
#>   match             word1  word2 
#>   <chr>             <chr>  <chr> 
#> 1 the smooth planks smooth planks
#> 2 the sheet to      sheet  to    
#> 3 the depth of      depth  of    
#> 4 <NA>              <NA>   <NA>  
#> 5 <NA>              <NA>   <NA>  
#> 6 <NA>              <NA>   <NA>  
#> # ℹ 714 more rows
…
