14 字符串 – R数据科学 (第二版)
…
在实际情况中，separate_longer_position()的使用较少见，但一些较旧的数据集确实使用了非常紧凑的格式，其中每个字符都用于记录一个值：

df2 <- tibble(x = c("1211", "131", "21"))
df2 |> 
  separate_longer_position(x, width = 1)
#> # A tibble: 9 × 1
#>   x    
#>   <chr>
#> 1 1    
#> 2 2    
#> 3 1    
#> 4 1    
#> 5 1    
#> 6 3    
#> # ℹ 3 more rows
…
在本节中，我们将介绍一些函数，这些函数允许你处理字符串中的单个字母。你 将学习如何查找字符串的长度、提取子字符串以及在图和表中处理长字符串。

14.5.1 长度

str_length()告诉你字符串中字母的数量:

str_length(c("a", "R for data science", NA))
#> [1]  1 18 NA

你可以使用count()来查找美国婴儿名字长度的分布情况，然后使用filter()来查看最长的名字，这些名字恰好有 15 个字母7。

babynames |>
  count(length = str_length(name), wt = n)
#> # A tibble: 14 × 2
#>   length        n
#>    <int>    <int>
#> 1      2   338150
#> 2      3  8589596
#> 3      4 48506739
#> 4      5 87011607
#> 5      6 90749404
#> 6      7 72120767
#> # ℹ 8 more rows

babynames |> 
  filter(str_length(name) == 15) |> 
  count(name, wt = n, sort = TRUE)
#> # A tibble: 34 × 2
#>   name                n
#>   <chr>           <int>
#> 1 Franciscojavier   123
#> 2 Christopherjohn   118
#> 3 Johnchristopher   118
#> 4 Christopherjame   108
#> 5 Christophermich    52
#> 6 Ryanchristopher    45
#> # ℹ 28 more rows
…
请注意，如果字符串太短，str_sub()不会失败，它将返回尽可能多的字符：

str_sub("a", 1, 5)
#> [1] "a"

我们可以使用str_sub()与mutate()来找到每个名字的首字母和末字母：

babynames |> 
  mutate(
    first = str_sub(name, 1, 1),
    last = str_sub(name, -1, -1)
  )
#> # A tibble: 1,924,665 × 7
#>    year sex   name          n   prop first last 
#>   <dbl> <chr> <chr>     <int>  <dbl> <chr> <chr>
#> 1  1880 F     Mary       7065 0.0724 M     y    
#> 2  1880 F     Anna       2604 0.0267 A     a    
#> 3  1880 F     Emma       2003 0.0205 E     a    
#> 4  1880 F     Elizabeth  1939 0.0199 E     h    
#> 5  1880 F     Minnie     1746 0.0179 M     e    
#> 6  1880 F     Margaret   1578 0.0162 M     t    
#> # ℹ 1,924,659 more rows
…
