R数据科学 (第二版) - 7 数据导入
…
7.4 从多个文件读取数据

有时，你的数据分散在多个文件中，而不是只包含在一个文件中。例 如，你可能有多个月份的销售数据，每个月的数据都保存在一个单独的文件中：1月的销售数据在01-sales.csv中，2月的在02-sales.csv中，3月的在03-sales.csv中。使 用read_csv()函数可以一次性读取这些数据，并将它们堆叠在一个数据框中。

sales_files <- c("data/01-sales.csv", "data/02-sales.csv", "data/03-sales.csv")
read_csv(sales_files, id = "file")
#> # A tibble: 19 × 6
#>   file              month    year brand  item     n
#>   <chr>             <chr>   <dbl> <dbl> <dbl> <dbl>
#> 1 data/01-sales.csv January  2019     1  1234     3
#> 2 data/01-sales.csv January  2019     1  8721     9
#> 3 data/01-sales.csv January  2019     1  1822     2
#> 4 data/01-sales.csv January  2019     2  3333     1
#> 5 data/01-sales.csv January  2019     2  2156     9
#> 6 data/01-sales.csv January  2019     2  3987     6
#> # ℹ 13 more rows
…
