R数据科学 (第二版) - 10 探索性数据分析
…
图中的每个圆圈的大小显示了每个值组合出现了多少次观测。协 变将表现为特定x值和特定y值之间的强相关性。

探索这些变量之间关系的另一种方法是使用dplyr来计算计数：

diamonds |> 
  count(color, cut)
#> # A tibble: 35 × 3
#>   color cut           n
#>   <ord> <ord>     <int>
#> 1 D     Fair        163
#> 2 D     Good        662
#> 3 D     Very Good  1513
#> 4 D     Premium    1603
#> 5 D     Ideal      2834
#> 6 E     Fair        224
#> # ℹ 29 more rows
…
