R数据科学 (第二版) - 19 连接
…
library(tidyverse)
library(nycflights13)

19.2 键（Keys）

要理解连接（join）操作，首先需要理解如何通过每个表中的一对键来连接两个表。在 本节中，你将学习两种类型的键，并在nycflights13包的数据集中看到这两种键的示例。你 还将学习如何检查你的键是否有效，以及如果表中缺少键该如何处理。

19.2.1 主键和外键

每次连接操作都涉及一对键：主键 (primary key) 和外键 (foreign key) 。主 键是一个变量或一组变量，用于唯一标识每个观测。当 需要多个变量时，这个键被称为复合键。例 如，在nycflights13包中：

airlines 记录关于每家航空公司的两项数据：承运人代码和全名。你 可以使用其两个字母的承运人代码来识别航空公司，使carrier (承运人) 成为主键。

airlines
#> # A tibble: 16 × 2
#>   carrier name                    
#>   <chr>   <chr>                   
#> 1 9E      Endeavor Air Inc.       
#> 2 AA      American Airlines Inc.  
#> 3 AS      Alaska Airlines Inc.    
#> 4 B6      JetBlue Airways         
#> 5 DL      Delta Air Lines Inc.    
#> 6 EV      ExpressJet Airlines Inc.
#> # ℹ 10 more rows

airports 记录了关于每个机场的数据。你 可以通过其三个字母的机场代码来识别每个机场，使faa成为主键。

airports
#> # A tibble: 1,458 × 8
#>   faa   name                            lat   lon   alt    tz dst  
#>   <chr> <chr>                         <dbl> <dbl> <dbl> <dbl> <chr>
#> 1 04G   Lansdowne Airport              41.1 -80.6  1044    -5 A    
#> 2 06A   Moton Field Municipal Airport  32.5 -85.7   264    -6 A    
#> 3 06C   Schaumburg Regional            42.0 -88.1   801    -6 A    
#> 4 06N   Randall Airport                41.4 -74.4   523    -5 A    
#> 5 09J   Jekyll Island Airport          31.1 -81.4    11    -5 A    
#> 6 0A9   Elizabethton Municipal Airpo…  36.4 -82.2  1593    -5 A    
#> # ℹ 1,452 more rows
#> # ℹ 1 more variable: tzone <chr>

planes 记录关于每架飞机的数据。你 可以通过其尾号来识别一架飞机，使tailnum成为主键。

planes
#> # A tibble: 3,322 × 9
#>   tailnum  year type              manufacturer    model     engines
#>   <chr>   <int> <chr>             <chr>           <chr>       <int>
#> 1 N10156   2004 Fixed wing multi… EMBRAER         EMB-145XR       2
#> 2 N102UW   1998 Fixed wing multi… AIRBUS INDUSTR… A320-214        2
#> 3 N103US   1999 Fixed wing multi… AIRBUS INDUSTR… A320-214        2
#> 4 N104UW   1999 Fixed wing multi… AIRBUS INDUSTR… A320-214        2
#> 5 N10575   2002 Fixed wing multi… EMBRAER         EMB-145LR       2
#> 6 N105UW   1999 Fixed wing multi… AIRBUS INDUSTR… A320-214        2
#> # ℹ 3,316 more rows
#> # ℹ 3 more variables: seats <int>, speed <int>, engine <chr>

weather 记录关于出发机场的天气数据。你 可以通过位置和时间的组合来识别每个观测，使origin和time_hour成为复合主键。

weather
#> # A tibble: 26,115 × 15
#>   origin  year month   day  hour  temp  dewp humid wind_dir
#>   <chr>  <int> <int> <int> <int> <dbl> <dbl> <dbl>    <dbl>
#> 1 EWR     2013     1     1     1  39.0  26.1  59.4      270
#> 2 EWR     2013     1     1     2  39.0  27.0  61.6      250
#> 3 EWR     2013     1     1     3  39.0  28.0  64.4      240
#> 4 EWR     2013     1     1     4  39.9  28.0  62.2      250
#> 5 EWR     2013     1     1     5  39.0  28.0  64.4      260
#> 6 EWR     2013     1     1     6  37.9  28.0  67.2      240
#> # ℹ 26,109 more rows
#> # ℹ 6 more variables: wind_speed <dbl>, wind_gust <dbl>, …
…
仅通过海拔和纬度来识别机场显然是一个糟糕的主意，而且通常仅凭数据本身是无法知道变量组合是否可以成为一个好的主键的。但 是对于航班来说，time_hour、carrier和flight的组合看起来是合理的，因为如果同时有多个航班在空中使用相同的航班号，对于航空公司和其客户来说会非常混乱的。

不过，我们最好使用行号来引入一个简单的数字代理键：

flights2 <- flights |> 
  mutate(id = row_number(), .before = 1)
flights2
#> # A tibble: 336,776 × 20
#>      id  year month   day dep_time sched_dep_time dep_delay arr_time
#>   <int> <int> <int> <int>    <int>          <int>     <dbl>    <int>
#> 1     1  2013     1     1      517            515         2      830
#> 2     2  2013     1     1      533            529         4      850
#> 3     3  2013     1     1      542            540         2      923
#> 4     4  2013     1     1      544            545        -1     1004
#> 5     5  2013     1     1      554            600        -6      812
#> 6     6  2013     1     1      554            558        -4      740
#> # ℹ 336,770 more rows
#> # ℹ 12 more variables: sched_arr_time <int>, arr_delay <dbl>, …
…
19.3 基本连接

既然你已经理解了如何通过键来连接数据框，现在就可以开始使用连接来更好地理解flights数据集了。d plyr提供了六种连接函数：left_join()、inner_join()、right_join()、full_join()、semi_join()和anti_join()。这 些函数都具有相同的接口：它们接受一对数据框（x和y）并返回一个数据框。输 出中行和列的顺序主要由x决定。

在本节中，你将学习如何使用一个变异连接left_join()和两个筛选连接semi_join()和anti_join()。在 下一节中，你将详细了解这些函数是如何工作的，包括剩下的inner_join()、right_join()和full_join()。

19.3.1 变异连接

变异连接允许你将两个数据框中的变量组合起来：它首先通过键来匹配观测值，然后将一个数据框中的变量复制到另一个数据框中。与 mutate()函数类似，连接函数将变量添加到右侧，因此如果你的数据集有很多变量，你可能不会立即看到新添加的变量。为 了这些示例，我们将通过创建一个仅包含六个变量的较窄数据集来更容易地查看发生了什么1：

flights2 <- flights |> 
  select(year, time_hour, origin, dest, tailnum, carrier)
flights2
#> # A tibble: 336,776 × 6
#>    year time_hour           origin dest  tailnum carrier
#>   <int> <dttm>              <chr>  <chr> <chr>   <chr>  
#> 1  2013 2013-01-01 05:00:00 EWR    IAH   N14228  UA     
#> 2  2013 2013-01-01 05:00:00 LGA    IAH   N24211  UA     
#> 3  2013 2013-01-01 05:00:00 JFK    MIA   N619AA  AA     
#> 4  2013 2013-01-01 05:00:00 JFK    BQN   N804JB  B6     
#> 5  2013 2013-01-01 06:00:00 LGA    ATL   N668DN  DL     
#> 6  2013 2013-01-01 05:00:00 EWR    ORD   N39463  UA     
#> # ℹ 336,770 more rows

变异连接有四种类型，但有一种你几乎总是会用到：left_join()。它 很特别，因为输出总是与x（你正在连接的数据框）有相同的行2。 left_join()的主要用途是添加额外的元数据。 例如，我们可以使用left_join()向flights2数据中添加完整的航空公司名称：

flights2 |>
  left_join(airlines)
#> Joining with `by = join_by(carrier)`
#> # A tibble: 336,776 × 7
#>    year time_hour           origin dest  tailnum carrier name                
#>   <int> <dttm>              <chr>  <chr> <chr>   <chr>   <chr>               
#> 1  2013 2013-01-01 05:00:00 EWR    IAH   N14228  UA      United Air Lines In…
#> 2  2013 2013-01-01 05:00:00 LGA    IAH   N24211  UA      United Air Lines In…
#> 3  2013 2013-01-01 05:00:00 JFK    MIA   N619AA  AA      American Airlines I…
#> 4  2013 2013-01-01 05:00:00 JFK    BQN   N804JB  B6      JetBlue Airways     
#> 5  2013 2013-01-01 06:00:00 LGA    ATL   N668DN  DL      Delta Air Lines Inc.
#> 6  2013 2013-01-01 05:00:00 EWR    ORD   N39463  UA      United Air Lines In…
#> # ℹ 336,770 more rows

或者我们可以查找每架飞机起飞时的温度和风速：

flights2 |> 
  left_join(weather |> select(origin, time_hour, temp, wind_speed))
#> Joining with `by = join_by(time_hour, origin)`
#> # A tibble: 336,776 × 8
#>    year time_hour           origin dest  tailnum carrier  temp wind_speed
#>   <int> <dttm>              <chr>  <chr> <chr>   <chr>   <dbl>      <dbl>
#> 1  2013 2013-01-01 05:00:00 EWR    IAH   N14228  UA       39.0       12.7
#> 2  2013 2013-01-01 05:00:00 LGA    IAH   N24211  UA       39.9       15.0
#> 3  2013 2013-01-01 05:00:00 JFK    MIA   N619AA  AA       39.0       15.0
#> 4  2013 2013-01-01 05:00:00 JFK    BQN   N804JB  B6       39.0       15.0
#> 5  2013 2013-01-01 06:00:00 LGA    ATL   N668DN  DL       39.9       16.1
#> 6  2013 2013-01-01 05:00:00 EWR    ORD   N39463  UA       39.0       12.7
#> # ℹ 336,770 more rows

或者查看当时飞行的是哪种大小的飞机：

flights2 |> 
  left_join(planes |> select(tailnum, type, engines, seats))
#> Joining with `by = join_by(tailnum)`
#> # A tibble: 336,776 × 9
#>    year time_hour           origin dest  tailnum carrier type                
#>   <int> <dttm>              <chr>  <chr> <chr>   <chr>   <chr>               
#> 1  2013 2013-01-01 05:00:00 EWR    IAH   N14228  UA      Fixed wing multi en…
#> 2  2013 2013-01-01 05:00:00 LGA    IAH   N24211  UA      Fixed wing multi en…
#> 3  2013 2013-01-01 05:00:00 JFK    MIA   N619AA  AA      Fixed wing multi en…
#> 4  2013 2013-01-01 05:00:00 JFK    BQN   N804JB  B6      Fixed wing multi en…
#> 5  2013 2013-01-01 06:00:00 LGA    ATL   N668DN  DL      Fixed wing multi en…
#> 6  2013 2013-01-01 05:00:00 EWR    ORD   N39463  UA      Fixed wing multi en…
#> # ℹ 336,770 more rows
#> # ℹ 2 more variables: engines <int>, seats <int>

当left_join()找不到与x中某行相匹配的记录时，它会用缺失值来填充新的变量。例 如，没有关于尾号为N3ALAA的飞机的信息，因此其type、engines和seats将是缺失的：

flights2 |> 
  filter(tailnum == "N3ALAA") |> 
  left_join(planes |> select(tailnum, type, engines, seats))
#> Joining with `by = join_by(tailnum)`
#> # A tibble: 63 × 9
#>    year time_hour           origin dest  tailnum carrier type  engines seats
#>   <int> <dttm>              <chr>  <chr> <chr>   <chr>   <chr>   <int> <int>
#> 1  2013 2013-01-01 06:00:00 LGA    ORD   N3ALAA  AA      <NA>       NA    NA
#> 2  2013 2013-01-02 18:00:00 LGA    ORD   N3ALAA  AA      <NA>       NA    NA
#> 3  2013 2013-01-03 06:00:00 LGA    ORD   N3ALAA  AA      <NA>       NA    NA
#> 4  2013 2013-01-07 19:00:00 LGA    ORD   N3ALAA  AA      <NA>       NA    NA
#> 5  2013 2013-01-08 17:00:00 JFK    ORD   N3ALAA  AA      <NA>       NA    NA
#> 6  2013 2013-01-16 06:00:00 LGA    ORD   N3ALAA  AA      <NA>       NA    NA
#> # ℹ 57 more rows

在本章剩下的部分，我们还会多次回到这个问题。

19.3.2 指定连接键

默认情况下，left_join()会使用两个数据框中都出现的所有变量作为连接键，这被称为自然连接 (natural join)。这 是一个有用的启发式方法，但并不总是有效。例 如，如果我们尝试将flights2与完整的planes数据集连接，会发生什么呢？

flights2 |> 
  left_join(planes)
#> Joining with `by = join_by(year, tailnum)`
#> # A tibble: 336,776 × 13
#>    year time_hour           origin dest  tailnum carrier type  manufacturer
#>   <int> <dttm>              <chr>  <chr> <chr>   <chr>   <chr> <chr>       
#> 1  2013 2013-01-01 05:00:00 EWR    IAH   N14228  UA      <NA>  <NA>        
#> 2  2013 2013-01-01 05:00:00 LGA    IAH   N24211  UA      <NA>  <NA>        
#> 3  2013 2013-01-01 05:00:00 JFK    MIA   N619AA  AA      <NA>  <NA>        
#> 4  2013 2013-01-01 05:00:00 JFK    BQN   N804JB  B6      <NA>  <NA>        
#> 5  2013 2013-01-01 06:00:00 LGA    ATL   N668DN  DL      <NA>  <NA>        
#> 6  2013 2013-01-01 05:00:00 EWR    ORD   N39463  UA      <NA>  <NA>        
#> # ℹ 336,770 more rows
#> # ℹ 5 more variables: model <chr>, engines <int>, seats <int>, …

我们得到了很多缺失的匹配项，因为连接试图使用tailnum和year作为复合键。f lights和planes都有一个year列，但它们表示的是不同的含义：flights$year是航班发生的年份，而planes$year是飞机制造的年份。我 们只想通过tailnum进行连接，因此我们需要使用join_by()来提供一个明确的规范。

flights2 |> 
  left_join(planes, join_by(tailnum))
#> # A tibble: 336,776 × 14
#>   year.x time_hour           origin dest  tailnum carrier year.y
#>    <int> <dttm>              <chr>  <chr> <chr>   <chr>    <int>
#> 1   2013 2013-01-01 05:00:00 EWR    IAH   N14228  UA        1999
#> 2   2013 2013-01-01 05:00:00 LGA    IAH   N24211  UA        1998
#> 3   2013 2013-01-01 05:00:00 JFK    MIA   N619AA  AA        1990
#> 4   2013 2013-01-01 05:00:00 JFK    BQN   N804JB  B6        2012
#> 5   2013 2013-01-01 06:00:00 LGA    ATL   N668DN  DL        1991
#> 6   2013 2013-01-01 05:00:00 EWR    ORD   N39463  UA        2012
#> # ℹ 336,770 more rows
#> # ℹ 7 more variables: type <chr>, manufacturer <chr>, model <chr>, …

请注意，在输出中year变量通过后缀（year.x 和 year.y）来区分，以告诉你该变量来自x还是y参数。你 可以使用suffix参数来覆盖默认后缀。

join_by(tailnum)是join_by(tailnum == tailnum)的简写。了 解这种完整形式很重要，原因有两个：首先，它描述了两个表之间的关系：键必须相等。这 就是为什么这种连接类型通常被称为等值连接 (equi join)。你 将在@sec-non-equi-joins 学习非等值连接。

其次，这是你在每个表中指定不同连接键的方式。例 如，有两种方式可以将flight2和airports表连接起来：通过dest或origin。

flights2 |> 
  left_join(airports, join_by(dest == faa))
#> # A tibble: 336,776 × 13
#>    year time_hour           origin dest  tailnum carrier name                
#>   <int> <dttm>              <chr>  <chr> <chr>   <chr>   <chr>               
#> 1  2013 2013-01-01 05:00:00 EWR    IAH   N14228  UA      George Bush Interco…
#> 2  2013 2013-01-01 05:00:00 LGA    IAH   N24211  UA      George Bush Interco…
#> 3  2013 2013-01-01 05:00:00 JFK    MIA   N619AA  AA      Miami Intl          
#> 4  2013 2013-01-01 05:00:00 JFK    BQN   N804JB  B6      <NA>                
#> 5  2013 2013-01-01 06:00:00 LGA    ATL   N668DN  DL      Hartsfield Jackson …
#> 6  2013 2013-01-01 05:00:00 EWR    ORD   N39463  UA      Chicago Ohare Intl  
#> # ℹ 336,770 more rows
#> # ℹ 6 more variables: lat <dbl>, lon <dbl>, alt <dbl>, tz <dbl>, …

flights2 |> 
  left_join(airports, join_by(origin == faa))
#> # A tibble: 336,776 × 13
#>    year time_hour           origin dest  tailnum carrier name               
#>   <int> <dttm>              <chr>  <chr> <chr>   <chr>   <chr>              
#> 1  2013 2013-01-01 05:00:00 EWR    IAH   N14228  UA      Newark Liberty Intl
#> 2  2013 2013-01-01 05:00:00 LGA    IAH   N24211  UA      La Guardia         
#> 3  2013 2013-01-01 05:00:00 JFK    MIA   N619AA  AA      John F Kennedy Intl
#> 4  2013 2013-01-01 05:00:00 JFK    BQN   N804JB  B6      John F Kennedy Intl
#> 5  2013 2013-01-01 06:00:00 LGA    ATL   N668DN  DL      La Guardia         
#> 6  2013 2013-01-01 05:00:00 EWR    ORD   N39463  UA      Newark Liberty Intl
#> # ℹ 336,770 more rows
#> # ℹ 6 more variables: lat <dbl>, lon <dbl>, alt <dbl>, tz <dbl>, …
…
airports |> 
  semi_join(flights2, join_by(faa == origin))
#> # A tibble: 3 × 8
#>   faa   name                  lat   lon   alt    tz dst   tzone           
#>   <chr> <chr>               <dbl> <dbl> <dbl> <dbl> <chr> <chr>           
#> 1 EWR   Newark Liberty Intl  40.7 -74.2    18    -5 A     America/New_York
#> 2 JFK   John F Kennedy Intl  40.6 -73.8    13    -5 A     America/New_York
#> 3 LGA   La Guardia           40.8 -73.9    22    -5 A     America/New_York

或者仅仅是目的地:

airports |> 
  semi_join(flights2, join_by(faa == dest))
#> # A tibble: 101 × 8
#>   faa   name                     lat    lon   alt    tz dst   tzone          
#>   <chr> <chr>                  <dbl>  <dbl> <dbl> <dbl> <chr> <chr>          
#> 1 ABQ   Albuquerque Internati…  35.0 -107.   5355    -7 A     America/Denver 
#> 2 ACK   Nantucket Mem           41.3  -70.1    48    -5 A     America/New_Yo…
#> 3 ALB   Albany Intl             42.7  -73.8   285    -5 A     America/New_Yo…
#> 4 ANC   Ted Stevens Anchorage…  61.2 -150.    152    -9 A     America/Anchor…
#> 5 ATL   Hartsfield Jackson At…  33.6  -84.4  1026    -5 A     America/New_Yo…
#> 6 AUS   Austin Bergstrom Intl   30.2  -97.7   542    -6 A     America/Chicago
#> # ℹ 95 more rows
…
或者我们可以找出哪些tailnum在planes数据集中缺失：

flights2 |>
  anti_join(planes, join_by(tailnum)) |> 
  distinct(tailnum)
#> # A tibble: 722 × 1
#>   tailnum
#>   <chr>  
#> 1 N3ALAA 
#> 2 N3DUAA 
#> 3 N542MQ 
#> 4 N730MQ 
#> 5 N9EAMQ 
#> 6 N532UA 
#> # ℹ 716 more rows
…
图 19.14: A cross join matches each row in x with every row in y.

交叉连接在生成排列时很有用。例 如下面的代码生成了所有可能的名称对。因 为我们正在将df与其自身连接，所以这有时被称为自连接 (self-join)。交 叉连接使用不同的连接函数，因为在匹配每一行时，没有内连接/左连接/右连接/全连接之间的区别。

df <- tibble(name = c("John", "Simon", "Tracy", "Max"))
df |> cross_join(df)
#> # A tibble: 16 × 2
#>   name.x name.y
#>   <chr>  <chr> 
#> 1 John   John  
#> 2 John   Simon 
#> 3 John   Tracy 
#> 4 John   Max   
#> 5 Simon  John  
#> 6 Simon  Simon 
#> # ℹ 10 more rows
…
parties <- tibble(
  q = 1:4,
  party = ymd(c("2022-01-10", "2022-04-04", "2022-07-11", "2022-10-03"))
)

现在，假设你有一张员工生日的表格：

set.seed(123)
employees <- tibble(
  name = sample(babynames::babynames$name, 100),
  birthday = ymd("2022-01-01") + (sample(365, 100, replace = TRUE) - 1)
)
employees
#> # A tibble: 100 × 2
#>   name     birthday  
#>   <chr>    <date>    
#> 1 Kemba    2022-01-22
#> 2 Orean    2022-06-26
#> 3 Kirstyn  2022-02-11
#> 4 Amparo   2022-11-11
#> 5 Belen    2022-03-25
#> 6 Rayshaun 2022-01-11
#> # ℹ 94 more rows

对于每个员工，我们都想找到在他们生日之后（或当天）的第一个派对日期。我 们可以用滚动连接来表示这一点：

employees |> 
  left_join(parties, join_by(closest(birthday >= party)))
#> # A tibble: 100 × 4
#>   name     birthday       q party     
#>   <chr>    <date>     <int> <date>    
#> 1 Kemba    2022-01-22     1 2022-01-10
#> 2 Orean    2022-06-26     2 2022-04-04
#> 3 Kirstyn  2022-02-11     1 2022-01-10
#> 4 Amparo   2022-11-11     4 2022-10-03
#> 5 Belen    2022-03-25     1 2022-01-10
#> 6 Rayshaun 2022-01-11     1 2022-01-10
#> # ℹ 94 more rows
…
哎呀，有重叠的区间，让我们修复这个问题并继续：

parties <- tibble(
  q = 1:4,
  party = ymd(c("2022-01-10", "2022-04-04", "2022-07-11", "2022-10-03")),
  start = ymd(c("2022-01-01", "2022-04-04", "2022-07-11", "2022-10-03")),
  end = ymd(c("2022-04-03", "2022-07-10", "2022-10-02", "2022-12-31"))
)

现在我们可以将每个员工与他们的派对匹配起来。这 里非常适合使用unmatched = "error"选项，因为我们想快速找出是否有员工没有被分配到派对。

employees |> 
  inner_join(parties, join_by(between(birthday, start, end)), unmatched = "error")
#> # A tibble: 100 × 6
#>   name     birthday       q party      start      end       
#>   <chr>    <date>     <int> <date>     <date>     <date>    
#> 1 Kemba    2022-01-22     1 2022-01-10 2022-01-01 2022-04-03
#> 2 Orean    2022-06-26     2 2022-04-04 2022-04-04 2022-07-10
#> 3 Kirstyn  2022-02-11     1 2022-01-10 2022-01-01 2022-04-03
#> 4 Amparo   2022-11-11     4 2022-10-03 2022-10-03 2022-12-31
#> 5 Belen    2022-03-25     1 2022-01-10 2022-01-01 2022-04-03
#> 6 Rayshaun 2022-01-11     1 2022-01-10 2022-01-01 2022-04-03
#> # ℹ 94 more rows
…
