R数据科学 (第二版) - 18 缺失值
…
默认情况下，将数据变长会保留显式缺失值，但是如果它们是由于数据不整齐而存在的结构性缺失值，你可以通过设置values_drop_na = TRUE来删除它们（使它们变为隐式）。更 多细节请参见 小节 5.2 中的示例。

18.3.2 完整(Complete)

tidyr::complete()允许你通过提供一组变量来生成显式缺失值，这些变量定义了应该存在的行的组合。例 如，我们知道在stocks数据中应该存在year和qtr的所有组合：

stocks |>
  complete(year, qtr)
#> # A tibble: 8 × 3
#>    year   qtr price
#>   <dbl> <dbl> <dbl>
#> 1  2020     1  1.88
#> 2  2020     2  0.59
#> 3  2020     3  0.35
#> 4  2020     4 NA   
#> 5  2021     1 NA   
#> 6  2021     2  0.92
#> # ℹ 2 more rows

通常，你会使用现有变量的名称来调用complete()函数，以填充缺失的组合。然 而，有时单个变量本身也是不完整的，因此你可以提供自己的数据。例 如，你可能知道stocks 数据集应该从2019年到2021年，所以你可以为year明确提供这些值：

stocks |>
  complete(year = 2019:2021, qtr)
#> # A tibble: 12 × 3
#>    year   qtr price
#>   <dbl> <dbl> <dbl>
#> 1  2019     1 NA   
#> 2  2019     2 NA   
#> 3  2019     3 NA   
#> 4  2019     4 NA   
#> 5  2020     1  1.88
#> 6  2020     2  0.59
#> # ℹ 6 more rows
…
flights |> 
  distinct(tailnum) |> 
  anti_join(planes)
#> Joining with `by = join_by(tailnum)`
#> # A tibble: 722 × 1
#>   tailnum
#>   <chr>  
#> 1 N3ALAA 
#> 2 N3DUAA 
#> 3 N542MQ 
#> 4 N730MQ 
#> 5 N9EAMQ 
#> 6 N532UA 
#> # ℹ 716 more rows
…
