R数据科学 (第二版) - 13 数值
…
当字符串中包含你想要忽略的非数字文本时，使用parse_number()。这 对于货币数据和百分比特别有用：

x <- c("$1,234", "USD 3,513", "59%")
parse_number(x)
#> [1] 1234 3513   59

13.3 计数

令人惊讶的是，仅仅通过计数和一些基本的算术运算你就能够完成不少数据科学工作，因此dplyr致力于通过count()函数使计数尽可能简单。这 个函数非常适合在分析过程中进行快速探索和检查：

flights |> count(dest)
#> # A tibble: 105 × 2
#>   dest      n
#>   <chr> <int>
#> 1 ABQ     254
#> 2 ACK     265
#> 3 ALB     439
#> 4 ANC       8
#> 5 ATL   17215
#> 6 AUS    2439
#> # ℹ 99 more rows

尽管在 章节 4 给出了建议，但我们通常还是将count()放在单独的一行，因为它通常在控制台中用于快速检查计算是否按预期工作。

如果你想看到最常见的值，添加 sort = TRUE:

flights |> count(dest, sort = TRUE)
#> # A tibble: 105 × 2
#>   dest      n
#>   <chr> <int>
#> 1 ORD   17283
#> 2 ATL   17215
#> 3 LAX   16174
#> 4 BOS   15508
#> 5 MCO   14082
#> 6 CLT   14064
#> # ℹ 99 more rows

请记住，如果希望查看所有值，可以使用|> View()或|> print(n = Inf)。

你可以通过group_by()、summarize()和n()“手动”执行相同的计算。这 是有用的，因为它允许你同时计算其他汇总统计量：

flights |> 
  group_by(dest) |> 
  summarize(
    n = n(),
    delay = mean(arr_delay, na.rm = TRUE)
  )
#> # A tibble: 105 × 3
#>   dest      n delay
#>   <chr> <int> <dbl>
#> 1 ABQ     254  4.38
#> 2 ACK     265  4.85
#> 3 ALB     439 14.4 
#> 4 ANC       8 -2.5 
#> 5 ATL   17215 11.3 
#> 6 AUS    2439  6.02
#> # ℹ 99 more rows
…
n()
#> Error in `n()`:
#> ! Must only be used inside data-masking verbs like `mutate()`,
#>   `filter()`, and `group_by()`.

n()和count()有几个变体，你可能会觉得它们有用：

n_distinct(x)计算一个或多个变量的不同（唯一）值的数量。例 如，我们可以找出哪些目的地有最多的航空公司提供服务：

flights |> 
  group_by(dest) |> 
  summarize(carriers = n_distinct(carrier)) |> 
  arrange(desc(carriers))
#> # A tibble: 105 × 2
#>   dest  carriers
#>   <chr>    <int>
#> 1 ATL          7
#> 2 BOS          7
#> 3 CLT          7
#> 4 ORD          7
#> 5 TPA          7
#> 6 AUS          6
#> # ℹ 99 more rows

加权计数是求和。例 如你可以“计数”每架飞机飞行的英里数：

flights |> 
  group_by(tailnum) |> 
  summarize(miles = sum(distance))
#> # A tibble: 4,044 × 2
#>   tailnum  miles
#>   <chr>    <dbl>
#> 1 D942DN    3418
#> 2 N0EGMQ  250866
#> 3 N10156  115966
#> 4 N102UW   25722
#> 5 N103US   24619
#> 6 N104UW   25157
#> # ℹ 4,038 more rows

加权计数是一个常见的问题，所以count()函数有一个wt参数来实现同样的功能：

flights |> count(tailnum, wt = distance)

可以通过结合sum()和is.na()来计数缺失值。在 flights数据集中，这表示被取消的航班：

flights |> 
  group_by(dest) |> 
  summarize(n_cancelled = sum(is.na(dep_time))) 
#> # A tibble: 105 × 2
#>   dest  n_cancelled
#>   <chr>       <int>
#> 1 ABQ             0
#> 2 ACK             0
#> 3 ALB            20
#> 4 ANC             0
#> 5 ATL           317
#> 6 AUS            21
#> # ℹ 99 more rows
…
通常，你只想循环单个数字（即长度为1的向量），但R会循环任何较短的向量。如 果较长的向量不是较短的向量的倍数，R通常会（但不总是）给出警告：

x * c(1, 2)
#> [1]  1  4 10 40
x * c(1, 2, 3)
#> Warning in x * c(1, 2, 3): longer object length is not a multiple of shorter
#> object length
#> [1]  1  4 30 20

这些循环规则也适用于逻辑比较（==, <, <=, >, >=, !=），如果你不小心使用了==而不是%in%，并且数据框的行数不巧地匹配了这些规则，可能会导致一个令人惊讶的结果。例 如，考虑以下代码，它试图找出1月和2月的所有航班：

flights |> 
  filter(month == c(1, 2))
#> # A tibble: 25,977 × 19
#>    year month   day dep_time sched_dep_time dep_delay arr_time sched_arr_time
#>   <int> <int> <int>    <int>          <int>     <dbl>    <int>          <int>
#> 1  2013     1     1      517            515         2      830            819
#> 2  2013     1     1      542            540         2      923            850
#> 3  2013     1     1      554            600        -6      812            837
#> 4  2013     1     1      555            600        -5      913            854
#> 5  2013     1     1      557            600        -3      838            846
#> 6  2013     1     1      558            600        -2      849            851
#> # ℹ 25,971 more rows
#> # ℹ 11 more variables: arr_delay <dbl>, carrier <chr>, flight <int>, …
…
1:10 %/% 3
#>  [1] 0 0 1 1 1 2 2 2 3 3
1:10 %% 3
#>  [1] 1 2 0 1 2 0 1 2 0 1

模运算对于flights数据集来说很有用，因为我们可以使用它来将sched_dep_time变量分解为hour和minute。

flights |> 
  mutate(
    hour = sched_dep_time %/% 100,
    minute = sched_dep_time %% 100,
    .keep = "used"
  )
#> # A tibble: 336,776 × 3
#>   sched_dep_time  hour minute
#>            <int> <dbl>  <dbl>
#> 1            515     5     15
#> 2            529     5     29
#> 3            540     5     40
#> 4            545     5     45
#> 5            600     6      0
#> 6            558     5     58
#> # ℹ 336,770 more rows
…
你可以通过选择适当的ties.method参数来使用 R 的基础函数rank()来达到许多相同的结果；你也可能希望通过设置na.last = "keep"将 NAs 值保留为 NA。

row_number()在 dplyr 的函数内部使用时也可以不带任何参数。在 这种情况下它会给出“当前”行的编号。当 与%%或%/%结合使用时，它可以成为将数据划分为大小相似的组的有用工具：

df <- tibble(id = 1:10)

df |> 
  mutate(
    row0 = row_number() - 1,
    three_groups = row0 %% 3,
    three_in_each_group = row0 %/% 3
  )
#> # A tibble: 10 × 4
#>      id  row0 three_groups three_in_each_group
#>   <int> <dbl>        <dbl>               <dbl>
#> 1     1     0            0                   0
#> 2     2     1            1                   0
#> 3     3     2            2                   0
#> 4     4     3            0                   1
#> 5     5     4            1                   1
#> 6     6     5            2                   1
#> # ℹ 4 more rows
…
有时，每当某个事件发生时你都希望开始一个新组。例 如在查看网站数据时，你通常会希望将事件划分为不同会话（sessions），即当距离上次活动超过 x 分钟时你会开始一个新会话。比 如，想象你有某人访问网站的时间记录：

events <- tibble(
  time = c(0, 1, 2, 3, 5, 10, 12, 15, 17, 19, 20, 27, 28, 30)
)

并且你已经计算了每个事件之间的时间间隔，并判断了是否存在足够大的间隔以符合标准：

events <- events |> 
  mutate(
    diff = time - lag(time, default = first(time)),
    has_gap = diff >= 5
  )
events
#> # A tibble: 14 × 3
#>    time  diff has_gap
#>   <dbl> <dbl> <lgl>  
#> 1     0     0 FALSE  
#> 2     1     1 FALSE  
#> 3     2     1 FALSE  
#> 4     3     1 FALSE  
#> 5     5     2 FALSE  
#> 6    10     5 TRUE   
#> # ℹ 8 more rows

但是，我们如何从逻辑向量转换为可以使用group_by()进行分组的东西呢？c umsum()函数（来自 小节 13.4.7 ）此时就派上了用场，当存在间隔（即has_gap为TRUE）时，它会增加分组编号（来自@sec-numeric-summaries-of-logicals ）：

events |> mutate(
  group = cumsum(has_gap)
)
#> # A tibble: 14 × 4
#>    time  diff has_gap group
#>   <dbl> <dbl> <lgl>   <int>
#> 1     0     0 FALSE       0
#> 2     1     1 FALSE       0
#> 3     2     1 FALSE       0
#> 4     3     1 FALSE       0
#> 5     5     2 FALSE       0
#> 6    10     5 TRUE        1
#> # ℹ 8 more rows

创建分组变量的另一种方法是consecutive_id()，它会在其参数之一发生变化时开始一个新组。例 如，受到this stackoverflow question的启发，假设你有一个包含许多重复值的数据框：

df <- tibble(
  x = c("a", "a", "a", "b", "c", "c", "d", "e", "a", "a", "b", "b"),
  y = c(1, 2, 3, 2, 4, 1, 3, 9, 4, 8, 10, 199)
)

如果你想要保留每个重复值x的第一行，你可以使用group_by()、consecutive_id()和slice_head()。

df |> 
  group_by(id = consecutive_id(x)) |> 
  slice_head(n = 1)
#> # A tibble: 7 × 3
#> # Groups:   id [7]
#>   x         y    id
#>   <chr> <dbl> <int>
#> 1 a         1     1
#> 2 b         2     2
#> 3 c         4     3
#> 4 d         3     4
#> 5 e         9     5
#> 6 a         4     6
#> # ℹ 1 more row
…
13.6.2 最小值、最大值和分位数

如果你对中心位置以外的其他位置感兴趣怎么办？m in()和max()会给你最大值和最小值。另 一个强大的工具是quantile()，它是中位数的泛化：quantile(x, 0.25)会找到大于 25% 的x的值，quantile(x, 0.5)相当于中位数，而quantile(x, 0.95)会找到大于 95% 的x的值。

对于flights数据，你可能想查看延误的 95% 分位数而不是最大值，因为它会忽略延误最严重的 5% 航班，这部分航班可能非常极端。

flights |>
  group_by(year, month, day) |>
  summarize(
    max = max(dep_delay, na.rm = TRUE),
    q95 = quantile(dep_delay, 0.95, na.rm = TRUE),
    .groups = "drop"
  )
#> # A tibble: 365 × 5
#>    year month   day   max   q95
#>   <int> <int> <int> <dbl> <dbl>
#> 1  2013     1     1   853  70.1
#> 2  2013     1     2   379  85  
#> 3  2013     1     3   291  68  
#> 4  2013     1     4   288  60  
#> 5  2013     1     5   327  41  
#> 6  2013     1     6   202  51  
#> # ℹ 359 more rows
…
对于数值向量，还有最后一种类型的汇总统计量非常有用，它也适用于其他类型的值：提取特定位置的值：first(x)、last(x) 和 nth(x, n)。

例如，我们可以找到每天第一次、第五次和最后一次的出发时间：

flights |> 
  group_by(year, month, day) |> 
  summarize(
    first_dep = first(dep_time, na_rm = TRUE), 
    fifth_dep = nth(dep_time, 5, na_rm = TRUE),
    last_dep = last(dep_time, na_rm = TRUE)
  )
#> `summarise()` has grouped output by 'year', 'month'. You can override using
#> the `.groups` argument.
#> # A tibble: 365 × 6
#> # Groups:   year, month [12]
#>    year month   day first_dep fifth_dep last_dep
#>   <int> <int> <int>     <int>     <int>    <int>
#> 1  2013     1     1       517       554     2356
#> 2  2013     1     2        42       535     2354
#> 3  2013     1     3        32       520     2349
#> 4  2013     1     4        25       531     2358
#> 5  2013     1     5        14       534     2357
#> 6  2013     1     6        16       555     2355
#> # ℹ 359 more rows

(注意：因为dplyr函数使用_来分隔函数名和参数名的组件，所以这些函数使用na_rm而不是na.rm）

如果你熟悉[操作符，我们将在@sec-subset-many 中再次讨论它，你可能会想是否需要这些函数。有 三个原因：默认参数允许你在指定的位置不存在时提供一个默认值，order_by参数允许你局部覆盖行的顺序，而na_rm参数允许你删除缺失值。

按位置提取值是对按秩筛选的补充。筛 选操作会返回所有变量，每个观测都在单独的一行中：

flights |> 
  group_by(year, month, day) |> 
  mutate(r = min_rank(sched_dep_time)) |> 
  filter(r %in% c(1, max(r)))
#> # A tibble: 1,195 × 20
#> # Groups:   year, month, day [365]
#>    year month   day dep_time sched_dep_time dep_delay arr_time sched_arr_time
#>   <int> <int> <int>    <int>          <int>     <dbl>    <int>          <int>
#> 1  2013     1     1      517            515         2      830            819
#> 2  2013     1     1     2353           2359        -6      425            445
#> 3  2013     1     1     2353           2359        -6      418            442
#> 4  2013     1     1     2356           2359        -3      425            437
#> 5  2013     1     2       42           2359        43      518            442
#> 6  2013     1     2      458            500        -2      703            650
#> # ℹ 1,189 more rows
#> # ℹ 12 more variables: arr_delay <dbl>, carrier <chr>, flight <int>, …
…
