R数据科学 (第二版) - 23 层次数据
…
这个tibble包含6行，每一行对应gh_repos的一个元素。每 一行包含一个未命名的列表，该列表包含26行或30行。由 于这些列表是未命名的，我们将首先使用unnest_longer()将每个子元素放在它自己的行中：

repos |> 
  unnest_longer(json)
#> # A tibble: 176 × 1
#>   json             
#>   <list>           
#> 1 <named list [68]>
#> 2 <named list [68]>
#> 3 <named list [68]>
#> 4 <named list [68]>
#> 5 <named list [68]>
#> 6 <named list [68]>
#> # ℹ 170 more rows

乍一看，情况似乎并没有改善：虽然我们有了更多的行（从6行增加到176行），但json中的每个元素仍然是一个列表。然 而，有一个重要的区别：现在每个元素都是一个命名列表，因此我们可以使用unnest_wider()将每个元素放入它自己的列中。

repos |> 
  unnest_longer(json) |> 
  unnest_wider(json) 
#> # A tibble: 176 × 68
#>         id name        full_name         owner        private html_url       
#>      <int> <chr>       <chr>             <list>       <lgl>   <chr>          
#> 1 61160198 after       gaborcsardi/after <named list> FALSE   https://github…
#> 2 40500181 argufy      gaborcsardi/argu… <named list> FALSE   https://github…
#> 3 36442442 ask         gaborcsardi/ask   <named list> FALSE   https://github…
#> 4 34924886 baseimports gaborcsardi/base… <named list> FALSE   https://github…
#> 5 61620661 citest      gaborcsardi/cite… <named list> FALSE   https://github…
#> 6 33907457 clisymbols  gaborcsardi/clis… <named list> FALSE   https://github…
#> # ℹ 170 more rows
#> # ℹ 62 more variables: description <chr>, fork <lgl>, url <chr>, …
…
repos |> 
  unnest_longer(json) |> 
  unnest_wider(json) |> 
  names() |> 
  head(10)
#>  [1] "id"          "name"        "full_name"   "owner"       "private"    
#>  [6] "html_url"    "description" "fork"        "url"         "forks_url"

让我们挑选一些看起来很有趣的:

repos |> 
  unnest_longer(json) |> 
  unnest_wider(json) |> 
  select(id, full_name, owner, description)
#> # A tibble: 176 × 4
#>         id full_name               owner             description             
#>      <int> <chr>                   <list>            <chr>                   
#> 1 61160198 gaborcsardi/after       <named list [17]> Run Code in the Backgro…
#> 2 40500181 gaborcsardi/argufy      <named list [17]> Declarative function ar…
#> 3 36442442 gaborcsardi/ask         <named list [17]> Friendly CLI interactio…
#> 4 34924886 gaborcsardi/baseimports <named list [17]> Do we get warnings for …
#> 5 61620661 gaborcsardi/citest      <named list [17]> Test R package and repo…
#> 6 33907457 gaborcsardi/clisymbols  <named list [17]> Unicode symbols for CLI…
#> # ℹ 170 more rows
…
呃，这个列表列也包含一个id列，而我们不能在同一数据框中有两个id列。正 如建议的那样，让我们使用names_sep来解决这个问题：

repos |> 
  unnest_longer(json) |> 
  unnest_wider(json) |> 
  select(id, full_name, owner, description) |> 
  unnest_wider(owner, names_sep = "_")
#> # A tibble: 176 × 20
#>         id full_name               owner_login owner_id owner_avatar_url     
#>      <int> <chr>                   <chr>          <int> <chr>                
#> 1 61160198 gaborcsardi/after       gaborcsardi   660288 https://avatars.gith…
#> 2 40500181 gaborcsardi/argufy      gaborcsardi   660288 https://avatars.gith…
#> 3 36442442 gaborcsardi/ask         gaborcsardi   660288 https://avatars.gith…
#> 4 34924886 gaborcsardi/baseimports gaborcsardi   660288 https://avatars.gith…
#> 5 61620661 gaborcsardi/citest      gaborcsardi   660288 https://avatars.gith…
#> 6 33907457 gaborcsardi/clisymbols  gaborcsardi   660288 https://avatars.gith…
#> # ℹ 170 more rows
#> # ℹ 15 more variables: owner_gravatar_id <chr>, owner_url <chr>, …

这给出了另一个宽数据集，但你可以感觉到owner似乎包含了很多关于“拥有”存储库的人的额外数据。

23.4.2 关系型数据

嵌套数据有时被用于表示分散在多个数据框中的数据。例 如，got_chars包含有关在《权力的游戏》书籍和电视剧中出现的角色数据。和 gh_repos一样，它是一个列表，所以我们首先将其转换为一个tibble的列表列：

chars <- tibble(json = got_chars)
chars
#> # A tibble: 30 × 1
#>   json             
#>   <list>           
#> 1 <named list [18]>
#> 2 <named list [18]>
#> 3 <named list [18]>
#> 4 <named list [18]>
#> 5 <named list [18]>
#> 6 <named list [18]>
#> # ℹ 24 more rows

json列包含具有名称的元素，因此我们首先将其拓宽：

chars |> 
  unnest_wider(json)
#> # A tibble: 30 × 18
#>   url                    id name            gender culture    born           
#>   <chr>               <int> <chr>           <chr>  <chr>      <chr>          
#> 1 https://www.anapio…  1022 Theon Greyjoy   Male   "Ironborn" "In 278 AC or …
#> 2 https://www.anapio…  1052 Tyrion Lannist… Male   ""         "In 273 AC, at…
#> 3 https://www.anapio…  1074 Victarion Grey… Male   "Ironborn" "In 268 AC or …
#> 4 https://www.anapio…  1109 Will            Male   ""         ""             
#> 5 https://www.anapio…  1166 Areo Hotah      Male   "Norvoshi" "In 257 AC or …
#> 6 https://www.anapio…  1267 Chett           Male   ""         "At Hag's Mire"
#> # ℹ 24 more rows
#> # ℹ 12 more variables: died <chr>, alive <lgl>, titles <list>, …

然后选择几列以便更容易阅读：

characters <- chars |> 
  unnest_wider(json) |> 
  select(id, name, gender, culture, born, died, alive)
characters
#> # A tibble: 30 × 7
#>      id name              gender culture    born              died           
#>   <int> <chr>             <chr>  <chr>      <chr>             <chr>          
#> 1  1022 Theon Greyjoy     Male   "Ironborn" "In 278 AC or 27… ""             
#> 2  1052 Tyrion Lannister  Male   ""         "In 273 AC, at C… ""             
#> 3  1074 Victarion Greyjoy Male   "Ironborn" "In 268 AC or be… ""             
#> 4  1109 Will              Male   ""         ""                "In 297 AC, at…
#> 5  1166 Areo Hotah        Male   "Norvoshi" "In 257 AC or be… ""             
#> 6  1267 Chett             Male   ""         "At Hag's Mire"   "In 299 AC, at…
#> # ℹ 24 more rows
#> # ℹ 1 more variable: alive <lgl>

该数据集也包含许多列表列:

chars |> 
  unnest_wider(json) |> 
  select(id, where(is.list))
#> # A tibble: 30 × 8
#>      id titles    aliases    allegiances books     povBooks tvSeries playedBy
#>   <int> <list>    <list>     <list>      <list>    <list>   <list>   <list>  
#> 1  1022 <chr [2]> <chr [4]>  <chr [1]>   <chr [3]> <chr>    <chr>    <chr>   
#> 2  1052 <chr [2]> <chr [11]> <chr [1]>   <chr [2]> <chr>    <chr>    <chr>   
#> 3  1074 <chr [2]> <chr [1]>  <chr [1]>   <chr [3]> <chr>    <chr>    <chr>   
#> 4  1109 <chr [1]> <chr [1]>  <NULL>      <chr [1]> <chr>    <chr>    <chr>   
#> 5  1166 <chr [1]> <chr [1]>  <chr [1]>   <chr [3]> <chr>    <chr>    <chr>   
#> 6  1267 <chr [1]> <chr [1]>  <NULL>      <chr [2]> <chr>    <chr>    <chr>   
#> # ℹ 24 more rows

让我们探索titles列。它 是一个未命名的列表列，因此我们将它展开成行：

chars |> 
  unnest_wider(json) |> 
  select(id, titles) |> 
  unnest_longer(titles)
#> # A tibble: 59 × 2
#>      id titles                                              
#>   <int> <chr>                                               
#> 1  1022 Prince of Winterfell                                
#> 2  1022 Lord of the Iron Islands (by law of the green lands)
#> 3  1052 Acting Hand of the King (former)                    
#> 4  1052 Master of Coin (former)                             
#> 5  1074 Lord Captain of the Iron Fleet                      
#> 6  1074 Master of the Iron Victory                          
#> # ℹ 53 more rows

你可能希望看到这个数据放在它自己的表中，因为当需要时它们可以很容易地与角色数据连接起来。我 们来做这个操作，这需要很少的清理工作：移除包含空字符串的行，并将titles重命名为title，因为现在每行只包含一个标题。

titles <- chars |> 
  unnest_wider(json) |> 
  select(id, titles) |> 
  unnest_longer(titles) |> 
  filter(titles != "") |> 
  rename(title = titles)
titles
#> # A tibble: 52 × 2
#>      id title                                               
#>   <int> <chr>                                               
#> 1  1022 Prince of Winterfell                                
#> 2  1022 Lord of the Iron Islands (by law of the green lands)
#> 3  1052 Acting Hand of the King (former)                    
#> 4  1052 Master of Coin (former)                             
#> 5  1074 Lord Captain of the Iron Fleet                      
#> 6  1074 Master of the Iron Victory                          
#> # ℹ 46 more rows
…
这给我们提供了 status 和 results 两个变量。由 于它们都是OK状态，所以可以删除状态列；在真实的分析中，你还希望捕获所有status != "OK"的行，并找出哪里出了问题。r esults是一个未命名的列表，包含一个或两个元素（我们稍后会看到原因），因此我们将它展开成行：

gmaps_cities |> 
  unnest_wider(json) |> 
  select(-status) |> 
  unnest_longer(results)
#> # A tibble: 7 × 2
#>   city       results         
#>   <chr>      <list>          
#> 1 Houston    <named list [5]>
#> 2 Washington <named list [5]>
#> 3 Washington <named list [5]>
#> 4 New York   <named list [5]>
#> 5 Chicago    <named list [5]>
#> 6 Arlington  <named list [5]>
#> # ℹ 1 more row

现在 results 是一个命名的列表, 所以使用 unnest_wider():

locations <- gmaps_cities |> 
  unnest_wider(json) |> 
  select(-status) |> 
  unnest_longer(results) |> 
  unnest_wider(results)
locations
#> # A tibble: 7 × 6
#>   city       address_components formatted_address   geometry        
#>   <chr>      <list>             <chr>               <list>          
#> 1 Houston    <list [4]>         Houston, TX, USA    <named list [4]>
#> 2 Washington <list [2]>         Washington, USA     <named list [4]>
#> 3 Washington <list [4]>         Washington, DC, USA <named list [4]>
#> 4 New York   <list [3]>         New York, NY, USA   <named list [4]>
#> 5 Chicago    <list [4]>         Chicago, IL, USA    <named list [4]>
#> 6 Arlington  <list [4]>         Arlington, TX, USA  <named list [4]>
#> # ℹ 1 more row
#> # ℹ 2 more variables: place_id <chr>, types <list>

现在我们可以理解为什么两个城市得到了两个结果：华盛顿州（Washington state）和华盛顿特区（Washington, DC）都匹配了华盛顿，而阿灵顿（Arlington）则匹配了弗吉尼亚州的阿灵顿（Arlington, Virginia）和德克萨斯州的阿灵顿（Arlington, Texas）。

接下来我们可以有几个不同的选择。我 们可能想要确定匹配的确切位置，这些信息被存储在geometry列表列中：

locations |> 
  select(city, formatted_address, geometry) |> 
  unnest_wider(geometry)
#> # A tibble: 7 × 6
#>   city       formatted_address   bounds           location     location_type
#>   <chr>      <chr>               <list>           <list>       <chr>        
#> 1 Houston    Houston, TX, USA    <named list [2]> <named list> APPROXIMATE  
#> 2 Washington Washington, USA     <named list [2]> <named list> APPROXIMATE  
#> 3 Washington Washington, DC, USA <named list [2]> <named list> APPROXIMATE  
#> 4 New York   New York, NY, USA   <named list [2]> <named list> APPROXIMATE  
#> 5 Chicago    Chicago, IL, USA    <named list [2]> <named list> APPROXIMATE  
#> 6 Arlington  Arlington, TX, USA  <named list [2]> <named list> APPROXIMATE  
#> # ℹ 1 more row
#> # ℹ 1 more variable: viewport <list>

这给我们提供了新的bounds（一个矩形区域）和location（一个点）变量。我 们可以展开位置列来查看纬度（lat）和经度（lng）：

locations |> 
  select(city, formatted_address, geometry) |> 
  unnest_wider(geometry) |> 
  unnest_wider(location)
#> # A tibble: 7 × 7
#>   city       formatted_address   bounds             lat    lng location_type
#>   <chr>      <chr>               <list>           <dbl>  <dbl> <chr>        
#> 1 Houston    Houston, TX, USA    <named list [2]>  29.8  -95.4 APPROXIMATE  
#> 2 Washington Washington, USA     <named list [2]>  47.8 -121.  APPROXIMATE  
#> 3 Washington Washington, DC, USA <named list [2]>  38.9  -77.0 APPROXIMATE  
#> 4 New York   New York, NY, USA   <named list [2]>  40.7  -74.0 APPROXIMATE  
#> 5 Chicago    Chicago, IL, USA    <named list [2]>  41.9  -87.6 APPROXIMATE  
#> 6 Arlington  Arlington, TX, USA  <named list [2]>  32.7  -97.1 APPROXIMATE  
#> # ℹ 1 more row
#> # ℹ 1 more variable: viewport <list>

提取边界需要更多的步骤:

locations |> 
  select(city, formatted_address, geometry) |> 
  unnest_wider(geometry) |> 
  # focus on the variables of interest
  select(!location:viewport) |>
  unnest_wider(bounds)
#> # A tibble: 7 × 4
#>   city       formatted_address   northeast        southwest       
#>   <chr>      <chr>               <list>           <list>          
#> 1 Houston    Houston, TX, USA    <named list [2]> <named list [2]>
#> 2 Washington Washington, USA     <named list [2]> <named list [2]>
#> 3 Washington Washington, DC, USA <named list [2]> <named list [2]>
#> 4 New York   New York, NY, USA   <named list [2]> <named list [2]>
#> 5 Chicago    Chicago, IL, USA    <named list [2]> <named list [2]>
#> 6 Arlington  Arlington, TX, USA  <named list [2]> <named list [2]>
#> # ℹ 1 more row

然后，我们重命名 southwest和 northeast（矩形的两个角），这样我们就可以使用names_sep来创建简短但有意义的名称：

locations |> 
  select(city, formatted_address, geometry) |> 
  unnest_wider(geometry) |> 
  select(!location:viewport) |>
  unnest_wider(bounds) |> 
  rename(ne = northeast, sw = southwest) |> 
  unnest_wider(c(ne, sw), names_sep = "_") 
#> # A tibble: 7 × 6
#>   city       formatted_address   ne_lat ne_lng sw_lat sw_lng
#>   <chr>      <chr>                <dbl>  <dbl>  <dbl>  <dbl>
#> 1 Houston    Houston, TX, USA      30.1  -95.0   29.5  -95.8
#> 2 Washington Washington, USA       49.0 -117.    45.5 -125. 
#> 3 Washington Washington, DC, USA   39.0  -76.9   38.8  -77.1
#> 4 New York   New York, NY, USA     40.9  -73.7   40.5  -74.3
#> 5 Chicago    Chicago, IL, USA      42.0  -87.5   41.6  -87.9
#> 6 Arlington  Arlington, TX, USA    32.8  -97.0   32.6  -97.2
#> # ℹ 1 more row
…
